^C:\USERS\BRUNO\PYCHARMPROJECTS\TCC\RECONHECIMENTO_FACIAL\DLIB-19.17\DLIB\CMAKE_UTILS\TEST_FOR_CUDA\CUDA_TEST.CU
C:\USERS\BRUNO\PYCHARMPROJECTS\TCC\RECONHECIMENTO_FACIAL\DLIB-19.17\BUILD\TEMP.WIN-AMD64-3.6\RELEASE\DLIB_BUILD\CUDA_TEST_BUILD\CMAKEFILES\CUDA_TEST.DIR\CUDA_TEST_GENERATED_CUDA_TEST.CU.OBJ.DEPEND
C:\USERS\BRUNO\PYCHARMPROJECTS\TCC\RECONHECIMENTO_FACIAL\DLIB-19.17\BUILD\TEMP.WIN-AMD64-3.6\RELEASE\DLIB_BUILD\CUDA_TEST_BUILD\CMAKEFILES\CUDA_TEST.DIR\CUDA_TEST_GENERATED_CUDA_TEST.CU.OBJ.DEBUG.CMAKE
^C:\USERS\BRUNO\PYCHARMPROJECTS\TCC\RECONHECIMENTO_FACIAL\DLIB-19.17\DLIB\CMAKE_UTILS\TEST_FOR_CUDA\CMAKELISTS.TXT
C:\PROGRAM FILES\CMAKE\SHARE\CMAKE-3.14\MODULES\CMAKECINFORMATION.CMAKE
C:\PROGRAM FILES\CMAKE\SHARE\CMAKE-3.14\MODULES\CMAKECXXINFORMATION.CMAKE
C:\PROGRAM FILES\CMAKE\SHARE\CMAKE-3.14\MODULES\CMAKECOMMONLANGUAGEINCLUDE.CMAKE
C:\PROGRAM FILES\CMAKE\SHARE\CMAKE-3.14\MODULES\CMAKEGENERICSYSTEM.CMAKE
C:\PROGRAM FILES\CMAKE\SHARE\CMAKE-3.14\MODULES\CMAKEINITIALIZECONFIGS.CMAKE
C:\PROGRAM FILES\CMAKE\SHARE\CMAKE-3.14\MODULES\CMAKELANGUAGEINFORMATION.CMAKE
C:\PROGRAM FILES\CMAKE\SHARE\CMAKE-3.14\MODULES\CMAKERCINFORMATION.CMAKE
C:\PROGRAM FILES\CMAKE\SHARE\CMAKE-3.14\MODULES\CMAKESYSTEMSPECIFICINFORMATION.CMAKE
C:\PROGRAM FILES\CMAKE\SHARE\CMAKE-3.14\MODULES\CMAKESYSTEMSPECIFICINITIALIZE.CMAKE
C:\PROGRAM FILES\CMAKE\SHARE\CMAKE-3.14\MODULES\COMPILER\CMAKECOMMONCOMPILERMACROS.CMAKE
C:\PROGRAM FILES\CMAKE\SHARE\CMAKE-3.14\MODULES\COMPILER\MSVC-C.CMAKE
C:\PROGRAM FILES\CMAKE\SHARE\CMAKE-3.14\MODULES\COMPILER\MSVC-CXX.CMAKE
C:\PROGRAM FILES\CMAKE\SHARE\CMAKE-3.14\MODULES\FINDCUDA.CMAKE
C:\PROGRAM FILES\CMAKE\SHARE\CMAKE-3.14\MODULES\FINDCUDA\RUN_NVCC.CMAKE
C:\PROGRAM FILES\CMAKE\SHARE\CMAKE-3.14\MODULES\FINDCUDA\SELECT_COMPUTE_ARCH.CMAKE
C:\PROGRAM FILES\CMAKE\SHARE\CMAKE-3.14\MODULES\FINDPACKAGEHANDLESTANDARDARGS.CMAKE
C:\PROGRAM FILES\CMAKE\SHARE\CMAKE-3.14\MODULES\FINDPACKAGEMESSAGE.CMAKE
C:\PROGRAM FILES\CMAKE\SHARE\CMAKE-3.14\MODULES\PLATFORM\WINDOWS-MSVC-C.CMAKE
C:\PROGRAM FILES\CMAKE\SHARE\CMAKE-3.14\MODULES\PLATFORM\WINDOWS-MSVC-CXX.CMAKE
C:\PROGRAM FILES\CMAKE\SHARE\CMAKE-3.14\MODULES\PLATFORM\WINDOWS-MSVC.CMAKE
C:\PROGRAM FILES\CMAKE\SHARE\CMAKE-3.14\MODULES\PLATFORM\WINDOWS.CMAKE
C:\PROGRAM FILES\CMAKE\SHARE\CMAKE-3.14\MODULES\PLATFORM\WINDOWSPATHS.CMAKE
C:\USERS\BRUNO\PYCHARMPROJECTS\TCC\RECONHECIMENTO_FACIAL\DLIB-19.17\BUILD\TEMP.WIN-AMD64-3.6\RELEASE\CMAKEFILES\3.14.1\CMAKECCOMPILER.CMAKE
C:\USERS\BRUNO\PYCHARMPROJECTS\TCC\RECONHECIMENTO_FACIAL\DLIB-19.17\BUILD\TEMP.WIN-AMD64-3.6\RELEASE\CMAKEFILES\3.14.1\CMAKECXXCOMPILER.CMAKE
C:\USERS\BRUNO\PYCHARMPROJECTS\TCC\RECONHECIMENTO_FACIAL\DLIB-19.17\BUILD\TEMP.WIN-AMD64-3.6\RELEASE\CMAKEFILES\3.14.1\CMAKERCCOMPILER.CMAKE
C:\USERS\BRUNO\PYCHARMPROJECTS\TCC\RECONHECIMENTO_FACIAL\DLIB-19.17\BUILD\TEMP.WIN-AMD64-3.6\RELEASE\CMAKEFILES\3.14.1\CMAKESYSTEM.CMAKE
C:\USERS\BRUNO\PYCHARMPROJECTS\TCC\RECONHECIMENTO_FACIAL\DLIB-19.17\BUILD\TEMP.WIN-AMD64-3.6\RELEASE\DLIB_BUILD\CUDA_TEST_BUILD\CMAKEFILES\CUDA_TEST.DIR\CUDA_TEST_GENERATED_CUDA_TEST.CU.OBJ.CMAKE.PRE-GEN
C:\USERS\BRUNO\PYCHARMPROJECTS\TCC\RECONHECIMENTO_FACIAL\DLIB-19.17\BUILD\TEMP.WIN-AMD64-3.6\RELEASE\DLIB_BUILD\CUDA_TEST_BUILD\CMAKEFILES\CUDA_TEST.DIR\CUDA_TEST_GENERATED_CUDA_TEST.CU.OBJ.DEPEND
