Executado em: 2019-10-21 
Pessoas procuradas: ['yaleB12', 'yaleB13', 'yaleB15', 'yaleB16', 'yaleB17', 'yaleB18', 'yaleB20', 'yaleB21', 'yaleB22', 'yaleB23', 'yaleB24', 'yaleB26', 'yaleB27', 'yaleB28', 'yaleB29', 'yaleB30', 'yaleB32', 'yaleB33', 'yaleB34', 'yaleB35', 'yaleB36', 'yaleB37', 'yaleB38', 'yaleB39'] 
Pessoas desconhecidas: ['yaleB11', 'yaleB19', 'yaleB25', 'yaleB31'] 
Total de Imagens: 4025
Total de faces detectadas: 3417
Total de faces reconhecidas: 2900


Lista VP [2757]: ['yaleB12_P00A+000E+20', 'yaleB12_P00A+000E+45', 'yaleB12_P00A+000E-20', 'yaleB12_P00A+000E-35', 'yaleB12_P00A+005E+10', 'yaleB12_P00A+005E-10', 'yaleB12_P00A+010E+00', 'yaleB12_P00A+010E-20', 'yaleB12_P00A+015E+20', 'yaleB12_P00A+020E+10', 'yaleB12_P00A+020E-10', 'yaleB12_P00A+020E-40', 'yaleB12_P00A+025E+00', 'yaleB12_P00A+035E+15', 'yaleB12_P00A+035E+40', 'yaleB12_P00A+035E+65', 'yaleB12_P00A+035E-20', 'yaleB12_P00A+050E+00', 'yaleB12_P00A+060E+20', 'yaleB12_P00A+060E-20', 'yaleB12_P00A+070E+00', 'yaleB12_P00A-005E+10', 'yaleB12_P00A-005E-10', 'yaleB12_P00A-010E+00', 'yaleB12_P00A-010E-20', 'yaleB12_P00A-015E+20', 'yaleB12_P00A-020E+10', 'yaleB12_P00A-020E-10', 'yaleB12_P00A-020E-40', 'yaleB12_P00A-025E+00', 'yaleB12_P00A-035E+15', 'yaleB12_P00A-035E+40', 'yaleB12_P00A-035E-20', 'yaleB12_P00A-060E+20', 'yaleB12_P01A+000E+00', 'yaleB12_P01A+000E+20', 'yaleB12_P01A+000E+45', 'yaleB12_P01A+000E-20', 'yaleB12_P01A+000E-35', 'yaleB12_P01A+005E+10', 'yaleB12_P01A+005E-10', 'yaleB12_P01A+010E+00', 'yaleB12_P01A+010E-20', 'yaleB12_P01A+015E+20', 'yaleB12_P01A+020E+10', 'yaleB12_P01A+020E-10', 'yaleB12_P01A+020E-40', 'yaleB12_P01A+025E+00', 'yaleB12_P01A+035E+15', 'yaleB12_P01A+035E+40', 'yaleB12_P01A+035E+65', 'yaleB12_P01A+035E-20', 'yaleB12_P01A+050E+00', 'yaleB12_P01A+060E+20', 'yaleB12_P01A-005E+10', 'yaleB12_P01A-005E-10', 'yaleB12_P01A-010E+00', 'yaleB12_P01A-010E-20', 'yaleB12_P01A-015E+20', 'yaleB12_P01A-020E+10', 'yaleB12_P01A-020E-10', 'yaleB12_P01A-020E-40', 'yaleB12_P01A-025E+00', 'yaleB12_P01A-035E+15', 'yaleB12_P01A-035E+40', 'yaleB12_P01A-035E+65', 'yaleB12_P01A-035E-20', 'yaleB12_P01A-060E+20', 'yaleB12_P02A+000E+00', 'yaleB12_P02A+000E+20', 'yaleB12_P02A+000E+45', 'yaleB12_P02A+000E-20', 'yaleB12_P02A+000E-35', 'yaleB12_P02A+005E+10', 'yaleB12_P02A+005E-10', 'yaleB12_P02A+010E+00', 'yaleB12_P02A+010E-20', 'yaleB12_P02A+015E+20', 'yaleB12_P02A+020E+10', 'yaleB12_P02A+020E-10', 'yaleB12_P02A+020E-40', 'yaleB12_P02A+025E+00', 'yaleB12_P02A+035E+15', 'yaleB12_P02A+035E+40', 'yaleB12_P02A+035E+65', 'yaleB12_P02A+035E-20', 'yaleB12_P02A+050E+00', 'yaleB12_P02A+060E+20', 'yaleB12_P02A+060E-20', 'yaleB12_P02A-005E+10', 'yaleB12_P02A-005E-10', 'yaleB12_P02A-010E+00', 'yaleB12_P02A-010E-20', 'yaleB12_P02A-015E+20', 'yaleB12_P02A-020E+10', 'yaleB12_P02A-020E-10', 'yaleB12_P02A-020E-40', 'yaleB12_P02A-025E+00', 'yaleB12_P02A-035E+15', 'yaleB12_P02A-035E+40', 'yaleB12_P02A-035E+65', 'yaleB12_P02A-035E-20', 'yaleB12_P02A-050E+00', 'yaleB12_P03A+000E+00', 'yaleB12_P03A+000E+20', 'yaleB12_P03A+000E-20', 'yaleB12_P03A+005E+10', 'yaleB12_P03A+005E-10', 'yaleB12_P03A+010E+00', 'yaleB12_P03A+010E-20', 'yaleB12_P03A+015E+20', 'yaleB12_P03A+020E+10', 'yaleB12_P03A+020E-10', 'yaleB12_P03A+025E+00', 'yaleB12_P03A+035E+15', 'yaleB12_P03A+035E+40', 'yaleB12_P03A+035E-20', 'yaleB12_P03A+050E+00', 'yaleB12_P03A+060E+20', 'yaleB12_P03A-005E+10', 'yaleB12_P03A-005E-10', 'yaleB12_P03A-010E+00', 'yaleB12_P03A-010E-20', 'yaleB12_P03A-015E+20', 'yaleB12_P03A-020E+10', 'yaleB12_P03A-020E-10', 'yaleB12_P03A-025E+00', 'yaleB12_P04A+000E+00', 'yaleB12_P04A+000E+20', 'yaleB12_P04A+000E+45', 'yaleB12_P04A+000E-20', 'yaleB12_P04A+000E-35', 'yaleB12_P04A+005E+10', 'yaleB12_P04A+005E-10', 'yaleB12_P04A+010E+00', 'yaleB12_P04A+010E-20', 'yaleB12_P04A+015E+20', 'yaleB12_P04A+020E+10', 'yaleB12_P04A+020E-10', 'yaleB12_P04A+020E-40', 'yaleB12_P04A+025E+00', 'yaleB12_P04A+035E+15', 'yaleB12_P04A+035E+40', 'yaleB12_P04A+035E+65', 'yaleB12_P04A+035E-20', 'yaleB12_P04A+050E+00', 'yaleB12_P04A+060E+20', 'yaleB12_P04A+060E-20', 'yaleB12_P04A+070E+00', 'yaleB12_P04A+070E+45', 'yaleB12_P04A-005E+10', 'yaleB12_P04A-005E-10', 'yaleB12_P04A-010E+00', 'yaleB12_P04A-010E-20', 'yaleB12_P04A-015E+20', 'yaleB12_P04A-020E+10', 'yaleB12_P04A-020E-10', 'yaleB12_P04A-020E-40', 'yaleB12_P04A-025E+00', 'yaleB12_P04A-035E+15', 'yaleB12_P04A-035E+40', 'yaleB12_P04A-035E+65', 'yaleB12_P04A-035E-20', 'yaleB12_P04A-050E+00', 'yaleB12_P04A-060E+20', 'yaleB12_P05A+000E+00', 'yaleB12_P05A+000E+20', 'yaleB12_P05A+000E+45', 'yaleB12_P05A+000E-20', 'yaleB12_P05A+000E-35', 'yaleB12_P05A+005E+10', 'yaleB12_P05A+005E-10', 'yaleB12_P05A+010E+00', 'yaleB12_P05A+010E-20', 'yaleB12_P05A+015E+20', 'yaleB12_P05A+020E+10', 'yaleB12_P05A+020E-10', 'yaleB12_P05A+020E-40', 'yaleB12_P05A+025E+00', 'yaleB12_P05A+035E+15', 'yaleB12_P05A+035E+40', 'yaleB12_P05A+035E-20', 'yaleB12_P05A+050E+00', 'yaleB12_P05A+060E+20', 'yaleB12_P05A+070E+00', 'yaleB12_P05A-005E+10', 'yaleB12_P05A-005E-10', 'yaleB12_P05A-010E+00', 'yaleB12_P05A-010E-20', 'yaleB12_P05A-015E+20', 'yaleB12_P05A-020E+10', 'yaleB12_P05A-020E-10', 'yaleB12_P05A-020E-40', 'yaleB12_P05A-025E+00', 'yaleB12_P05A-035E+15', 'yaleB12_P05A-035E+40', 'yaleB12_P05A-035E-20', 'yaleB12_P05A-060E+20', 'yaleB12_P06A+000E+00', 'yaleB12_P06A+000E+20', 'yaleB12_P06A+000E+45', 'yaleB12_P06A+000E-20', 'yaleB12_P06A+000E-35', 'yaleB12_P06A+005E+10', 'yaleB12_P06A+005E-10', 'yaleB12_P06A+010E+00', 'yaleB12_P06A+010E-20', 'yaleB12_P06A+015E+20', 'yaleB12_P06A+020E+10', 'yaleB12_P06A+020E-10', 'yaleB12_P06A+025E+00', 'yaleB12_P06A+035E+15', 'yaleB12_P06A+035E+40', 'yaleB12_P06A+035E+65', 'yaleB12_P06A+035E-20', 'yaleB12_P06A+050E+00', 'yaleB12_P06A+060E+20', 'yaleB12_P06A+070E+45', 'yaleB12_P06A-005E+10', 'yaleB12_P06A-005E-10', 'yaleB12_P06A-010E+00', 'yaleB12_P06A-010E-20', 'yaleB12_P06A-015E+20', 'yaleB12_P06A-020E+10', 'yaleB12_P06A-020E-10', 'yaleB12_P06A-025E+00', 'yaleB12_P06A-035E+15', 'yaleB12_P06A-035E+40', 'yaleB12_P06A-035E+65', 'yaleB12_P06A-035E-20', 'yaleB12_P06A-050E+00', 'yaleB12_P06A-060E+20', 'yaleB12_P06A-070E+45', 'yaleB12_P07A+000E+00', 'yaleB12_P07A+000E+20', 'yaleB12_P07A+000E+45', 'yaleB12_P07A+000E-20', 'yaleB12_P07A+005E+10', 'yaleB12_P07A+005E-10', 'yaleB12_P07A+010E+00', 'yaleB12_P07A+010E-20', 'yaleB12_P07A+015E+20', 'yaleB12_P07A+020E+10', 'yaleB12_P07A+020E-10', 'yaleB12_P07A+020E-40', 'yaleB12_P07A+025E+00', 'yaleB12_P07A+035E+15', 'yaleB12_P07A+035E+40', 'yaleB12_P07A+035E-20', 'yaleB12_P07A+050E+00', 'yaleB12_P07A+060E+20', 'yaleB12_P07A+060E-20', 'yaleB12_P07A+070E+00', 'yaleB12_P07A+070E+45', 'yaleB12_P07A+085E+20', 'yaleB12_P07A-005E+10', 'yaleB12_P07A-005E-10', 'yaleB12_P07A-010E+00', 'yaleB12_P07A-010E-20', 'yaleB12_P07A-015E+20', 'yaleB12_P07A-020E+10', 'yaleB12_P07A-020E-10', 'yaleB12_P07A-025E+00', 'yaleB12_P07A-035E+15', 'yaleB12_P07A-035E-20', 'yaleB12_P07A-050E+00', 'yaleB12_P08A+000E+00', 'yaleB12_P08A+000E+20', 'yaleB12_P08A+000E+45', 'yaleB12_P08A+000E-20', 'yaleB12_P08A+000E-35', 'yaleB12_P08A+005E+10', 'yaleB12_P08A+005E-10', 'yaleB12_P08A+010E+00', 'yaleB12_P08A+010E-20', 'yaleB12_P08A+015E+20', 'yaleB12_P08A+020E+10', 'yaleB12_P08A+020E-10', 'yaleB12_P08A+020E-40', 'yaleB12_P08A+025E+00', 'yaleB12_P08A+035E+15', 'yaleB12_P08A+035E+40', 'yaleB12_P08A+035E-20', 'yaleB12_P08A+050E+00', 'yaleB12_P08A+060E+20', 'yaleB12_P08A+060E-20', 'yaleB12_P08A+070E+45', 'yaleB12_P08A-005E+10', 'yaleB12_P08A-005E-10', 'yaleB12_P08A-010E+00', 'yaleB12_P08A-010E-20', 'yaleB12_P08A-015E+20', 'yaleB12_P08A-020E+10', 'yaleB12_P08A-020E-10', 'yaleB12_P08A-020E-40', 'yaleB12_P08A-025E+00', 'yaleB12_P08A-035E+15', 'yaleB12_P08A-035E+40', 'yaleB12_P08A-035E-20', 'yaleB12_P08A-050E+00', 'yaleB13_P00A+000E+20', 'yaleB13_P00A+000E+45', 'yaleB13_P00A+000E-20', 'yaleB13_P00A+000E-35', 'yaleB13_P00A+005E+10', 'yaleB13_P00A+005E-10', 'yaleB13_P00A+010E+00', 'yaleB13_P00A+010E-20', 'yaleB13_P00A+015E+20', 'yaleB13_P00A+020E+10', 'yaleB13_P00A+020E-10', 'yaleB13_P00A+020E-40', 'yaleB13_P00A+025E+00', 'yaleB13_P00A+035E+15', 'yaleB13_P00A+035E+40', 'yaleB13_P00A+035E+65', 'yaleB13_P00A+035E-20', 'yaleB13_P00A+050E+00', 'yaleB13_P00A+060E+20', 'yaleB13_P00A+070E+45', 'yaleB13_P00A+085E+20', 'yaleB13_P00A+085E-20', 'yaleB13_P00A+110E-20', 'yaleB13_P00A+120E+00', 'yaleB13_P00A-005E+10', 'yaleB13_P00A-005E-10', 'yaleB13_P00A-010E+00', 'yaleB13_P00A-010E-20', 'yaleB13_P00A-015E+20', 'yaleB13_P00A-020E+10', 'yaleB13_P00A-020E-10', 'yaleB13_P00A-020E-40', 'yaleB13_P00A-025E+00', 'yaleB13_P00A-035E+15', 'yaleB13_P00A-035E+40', 'yaleB13_P00A-035E+65', 'yaleB13_P00A-035E-20', 'yaleB13_P00A-050E+00', 'yaleB13_P00A-060E+20', 'yaleB13_P00A-070E+45', 'yaleB13_P01A+000E+00', 'yaleB13_P01A+000E+20', 'yaleB13_P01A+000E+45', 'yaleB13_P01A+000E-20', 'yaleB13_P01A+005E+10', 'yaleB13_P01A+005E-10', 'yaleB13_P01A+010E+00', 'yaleB13_P01A+010E-20', 'yaleB13_P01A+015E+20', 'yaleB13_P01A+020E+10', 'yaleB13_P01A+020E-10', 'yaleB13_P01A+025E+00', 'yaleB13_P01A+035E+15', 'yaleB13_P01A+035E+40', 'yaleB13_P01A+035E+65', 'yaleB13_P01A+050E+00', 'yaleB13_P01A+060E+20', 'yaleB13_P01A+060E-20', 'yaleB13_P01A+070E+45', 'yaleB13_P01A-005E+10', 'yaleB13_P01A-005E-10', 'yaleB13_P01A-010E+00', 'yaleB13_P01A-010E-20', 'yaleB13_P01A-015E+20', 'yaleB13_P01A-020E+10', 'yaleB13_P01A-020E-10', 'yaleB13_P01A-025E+00', 'yaleB13_P01A-035E+15', 'yaleB13_P01A-035E+40', 'yaleB13_P01A-035E+65', 'yaleB13_P01A-070E+45', 'yaleB13_P02A+000E+00', 'yaleB13_P02A+000E+20', 'yaleB13_P02A+000E+45', 'yaleB13_P02A+000E+90', 'yaleB13_P02A+000E-20', 'yaleB13_P02A+000E-35', 'yaleB13_P02A+005E+10', 'yaleB13_P02A+005E-10', 'yaleB13_P02A+010E+00', 'yaleB13_P02A+010E-20', 'yaleB13_P02A+015E+20', 'yaleB13_P02A+020E+10', 'yaleB13_P02A+020E-10', 'yaleB13_P02A+025E+00', 'yaleB13_P02A+035E+15', 'yaleB13_P02A+035E+40', 'yaleB13_P02A+035E+65', 'yaleB13_P02A+035E-20', 'yaleB13_P02A+050E+00', 'yaleB13_P02A+060E+20', 'yaleB13_P02A+070E+45', 'yaleB13_P02A+110E-20', 'yaleB13_P02A-005E+10', 'yaleB13_P02A-005E-10', 'yaleB13_P02A-010E+00', 'yaleB13_P02A-010E-20', 'yaleB13_P02A-015E+20', 'yaleB13_P02A-020E+10', 'yaleB13_P02A-020E-10', 'yaleB13_P02A-020E-40', 'yaleB13_P02A-025E+00', 'yaleB13_P02A-035E+15', 'yaleB13_P02A-035E+40', 'yaleB13_P02A-035E+65', 'yaleB13_P02A-035E-20', 'yaleB13_P02A-060E+20', 'yaleB13_P02A-070E+45', 'yaleB13_P03A+000E+00', 'yaleB13_P03A+000E+20', 'yaleB13_P03A+000E+45', 'yaleB13_P03A+000E-20', 'yaleB13_P03A+000E-35', 'yaleB13_P03A+005E+10', 'yaleB13_P03A+005E-10', 'yaleB13_P03A+010E+00', 'yaleB13_P03A+010E-20', 'yaleB13_P03A+015E+20', 'yaleB13_P03A+020E+10', 'yaleB13_P03A+020E-10', 'yaleB13_P03A+020E-40', 'yaleB13_P03A+025E+00', 'yaleB13_P03A+035E+15', 'yaleB13_P03A+035E+40', 'yaleB13_P03A+035E+65', 'yaleB13_P03A+035E-20', 'yaleB13_P03A+050E+00', 'yaleB13_P03A+060E+20', 'yaleB13_P03A+060E-20', 'yaleB13_P03A+070E-35', 'yaleB13_P03A-005E+10', 'yaleB13_P03A-005E-10', 'yaleB13_P03A-010E+00', 'yaleB13_P03A-010E-20', 'yaleB13_P03A-015E+20', 'yaleB13_P03A-020E+10', 'yaleB13_P03A-020E-10', 'yaleB13_P03A-020E-40', 'yaleB13_P03A-025E+00', 'yaleB13_P03A-035E+15', 'yaleB13_P03A-035E+40', 'yaleB13_P03A-035E+65', 'yaleB13_P03A-035E-20', 'yaleB13_P03A-050E+00', 'yaleB13_P03A-060E+20', 'yaleB13_P03A-070E+45', 'yaleB13_P04A+000E+00', 'yaleB13_P04A+000E+20', 'yaleB13_P04A+000E+45', 'yaleB13_P04A+000E-20', 'yaleB13_P04A+000E-35', 'yaleB13_P04A+005E+10', 'yaleB13_P04A+005E-10', 'yaleB13_P04A+010E+00', 'yaleB13_P04A+010E-20', 'yaleB13_P04A+015E+20', 'yaleB13_P04A+020E+10', 'yaleB13_P04A+020E-10', 'yaleB13_P04A+020E-40', 'yaleB13_P04A+025E+00', 'yaleB13_P04A+035E+15', 'yaleB13_P04A+035E+40', 'yaleB13_P04A+035E-20', 'yaleB13_P04A+050E+00', 'yaleB13_P04A+060E+20', 'yaleB13_P04A+070E-35', 'yaleB13_P04A+085E-20', 'yaleB13_P04A+110E-20', 'yaleB13_P04A+120E+00', 'yaleB13_P04A+130E+20', 'yaleB13_P04A-005E+10', 'yaleB13_P04A-005E-10', 'yaleB13_P04A-010E+00', 'yaleB13_P04A-010E-20', 'yaleB13_P04A-015E+20', 'yaleB13_P04A-020E+10', 'yaleB13_P04A-020E-10', 'yaleB13_P04A-020E-40', 'yaleB13_P04A-025E+00', 'yaleB13_P04A-035E+15', 'yaleB13_P04A-035E+40', 'yaleB13_P04A-035E-20', 'yaleB13_P04A-050E+00', 'yaleB13_P04A-060E+20', 'yaleB13_P04A-070E+45', 'yaleB13_P05A+000E+00', 'yaleB13_P05A+000E+20', 'yaleB13_P05A+000E+45', 'yaleB13_P05A+000E-20', 'yaleB13_P05A+000E-35', 'yaleB13_P05A+005E+10', 'yaleB13_P05A+005E-10', 'yaleB13_P05A+010E+00', 'yaleB13_P05A+010E-20', 'yaleB13_P05A+015E+20', 'yaleB13_P05A+020E+10', 'yaleB13_P05A+020E-10', 'yaleB13_P05A+020E-40', 'yaleB13_P05A+025E+00', 'yaleB13_P05A+035E+15', 'yaleB13_P05A+035E+40', 'yaleB13_P05A+035E-20', 'yaleB13_P05A+050E+00', 'yaleB13_P05A+060E+20', 'yaleB13_P05A+070E+45', 'yaleB13_P05A+110E+65', 'yaleB13_P05A+130E+20', 'yaleB13_P05A-005E+10', 'yaleB13_P05A-005E-10', 'yaleB13_P05A-010E+00', 'yaleB13_P05A-010E-20', 'yaleB13_P05A-015E+20', 'yaleB13_P05A-020E+10', 'yaleB13_P05A-020E-10', 'yaleB13_P05A-020E-40', 'yaleB13_P05A-025E+00', 'yaleB13_P05A-035E+15', 'yaleB13_P05A-035E+40', 'yaleB13_P05A-035E-20', 'yaleB13_P05A-050E+00', 'yaleB13_P05A-060E+20', 'yaleB13_P05A-130E+20', 'yaleB13_P06A+000E+00', 'yaleB13_P06A+000E+20', 'yaleB13_P06A+000E+45', 'yaleB13_P06A+000E+90', 'yaleB13_P06A+000E-20', 'yaleB13_P06A+000E-35', 'yaleB13_P06A+005E+10', 'yaleB13_P06A+005E-10', 'yaleB13_P06A+010E+00', 'yaleB13_P06A+010E-20', 'yaleB13_P06A+015E+20', 'yaleB13_P06A+020E+10', 'yaleB13_P06A+020E-10', 'yaleB13_P06A+020E-40', 'yaleB13_P06A+025E+00', 'yaleB13_P06A+035E+15', 'yaleB13_P06A+035E+40', 'yaleB13_P06A+035E+65', 'yaleB13_P06A+035E-20', 'yaleB13_P06A+050E+00', 'yaleB13_P06A+060E+20', 'yaleB13_P06A+060E-20', 'yaleB13_P06A+070E+45', 'yaleB13_P06A-005E+10', 'yaleB13_P06A-005E-10', 'yaleB13_P06A-010E+00', 'yaleB13_P06A-010E-20', 'yaleB13_P06A-015E+20', 'yaleB13_P06A-020E+10', 'yaleB13_P06A-020E-10', 'yaleB13_P06A-025E+00', 'yaleB13_P06A-035E+15', 'yaleB13_P06A-035E+40', 'yaleB13_P06A-035E+65', 'yaleB13_P06A-035E-20', 'yaleB13_P06A-050E+00', 'yaleB13_P06A-060E+20', 'yaleB13_P06A-060E-20', 'yaleB13_P06A-070E+45', 'yaleB13_P07A+000E+00', 'yaleB13_P07A+000E+20', 'yaleB13_P07A+000E+45', 'yaleB13_P07A+000E-20', 'yaleB13_P07A+000E-35', 'yaleB13_P07A+005E+10', 'yaleB13_P07A+005E-10', 'yaleB13_P07A+010E+00', 'yaleB13_P07A+010E-20', 'yaleB13_P07A+015E+20', 'yaleB13_P07A+020E+10', 'yaleB13_P07A+020E-10', 'yaleB13_P07A+020E-40', 'yaleB13_P07A+025E+00', 'yaleB13_P07A+035E+15', 'yaleB13_P07A+035E+40', 'yaleB13_P07A+035E-20', 'yaleB13_P07A+050E+00', 'yaleB13_P07A+060E-20', 'yaleB13_P07A+070E-35', 'yaleB13_P07A+110E-20', 'yaleB13_P07A-005E+10', 'yaleB13_P07A-005E-10', 'yaleB13_P07A-010E+00', 'yaleB13_P07A-010E-20', 'yaleB13_P07A-015E+20', 'yaleB13_P07A-020E+10', 'yaleB13_P07A-020E-10', 'yaleB13_P07A-020E-40', 'yaleB13_P07A-025E+00', 'yaleB13_P07A-035E+15', 'yaleB13_P07A-035E+40', 'yaleB13_P07A-035E-20', 'yaleB13_P07A-050E+00', 'yaleB13_P07A-060E+20', 'yaleB13_P07A-070E+45', 'yaleB13_P08A+000E+00', 'yaleB13_P08A+000E+20', 'yaleB13_P08A+000E+45', 'yaleB13_P08A+000E-20', 'yaleB13_P08A+000E-35', 'yaleB13_P08A+005E+10', 'yaleB13_P08A+005E-10', 'yaleB13_P08A+010E+00', 'yaleB13_P08A+010E-20', 'yaleB13_P08A+015E+20', 'yaleB13_P08A+020E+10', 'yaleB13_P08A+020E-10', 'yaleB13_P08A+020E-40', 'yaleB13_P08A+025E+00', 'yaleB13_P08A+035E+15', 'yaleB13_P08A+035E+40', 'yaleB13_P08A+035E-20', 'yaleB13_P08A+050E+00', 'yaleB13_P08A-005E+10', 'yaleB13_P08A-005E-10', 'yaleB13_P08A-010E+00', 'yaleB13_P08A-010E-20', 'yaleB13_P08A-015E+20', 'yaleB13_P08A-020E+10', 'yaleB13_P08A-020E-10', 'yaleB13_P08A-020E-40', 'yaleB13_P08A-025E+00', 'yaleB13_P08A-035E+15', 'yaleB13_P08A-035E+40', 'yaleB13_P08A-035E-20', 'yaleB13_P08A-050E+00', 'yaleB13_P08A-060E+20', 'yaleB16_P01A+000E+20', 'yaleB16_P01A+000E-20', 'yaleB16_P01A+005E+10', 'yaleB16_P01A+005E-10', 'yaleB16_P01A+010E+00', 'yaleB16_P01A+010E-20', 'yaleB16_P01A+015E+20', 'yaleB16_P01A+020E+10', 'yaleB16_P01A+020E-10', 'yaleB16_P01A+035E+15', 'yaleB16_P01A-005E-10', 'yaleB16_P01A-010E-20', 'yaleB16_P01A-015E+20', 'yaleB16_P01A-020E+10', 'yaleB16_P01A-020E-10', 'yaleB16_P01A-025E+00', 'yaleB16_P02A+000E+00', 'yaleB16_P02A+000E+20', 'yaleB16_P02A+000E-20', 'yaleB16_P02A+005E+10', 'yaleB16_P02A+005E-10', 'yaleB16_P02A+010E+00', 'yaleB16_P02A+015E+20', 'yaleB16_P02A+020E+10', 'yaleB16_P02A-005E-10', 'yaleB16_P02A-015E+20', 'yaleB16_P02A-020E+10', 'yaleB16_P03A+000E+00', 'yaleB16_P03A+000E+20', 'yaleB16_P03A+000E-20', 'yaleB16_P03A+005E+10', 'yaleB16_P03A+005E-10', 'yaleB16_P03A+010E+00', 'yaleB16_P03A+010E-20', 'yaleB16_P03A+015E+20', 'yaleB16_P03A+020E+10', 'yaleB16_P03A+035E+15', 'yaleB16_P03A-005E-10', 'yaleB16_P03A-020E+10', 'yaleB16_P03A-020E-10', 'yaleB16_P05A+005E-10', 'yaleB16_P05A+010E+00', 'yaleB16_P05A-005E-10', 'yaleB16_P07A+010E+00', 'yaleB16_P08A+010E+00', 'yaleB16_P09A+000E+00', 'yaleB16_P09A+000E-20', 'yaleB16_P09A+005E-10', 'yaleB16_P09A+010E+00', 'yaleB16_P09A+010E-20', 'yaleB16_P09A-005E-10', 'yaleB17_P00A+000E+20', 'yaleB17_P00A+000E-20', 'yaleB17_P00A+005E+10', 'yaleB17_P00A+005E-10', 'yaleB17_P00A+010E+00', 'yaleB17_P00A+010E-20', 'yaleB17_P00A+015E+20', 'yaleB17_P00A+020E+10', 'yaleB17_P00A-005E-10', 'yaleB17_P00A-015E+20', 'yaleB17_P00A-020E+10', 'yaleB17_P00A-020E-10', 'yaleB17_P00A-025E+00', 'yaleB17_P02A+000E+00', 'yaleB17_P02A+000E+20', 'yaleB17_P02A+005E+10', 'yaleB17_P02A+005E-10', 'yaleB17_P02A+010E+00', 'yaleB17_P02A+015E+20', 'yaleB17_P02A-005E-10', 'yaleB17_P02A-015E+20', 'yaleB17_P02A-020E+10', 'yaleB17_P03A+000E+00', 'yaleB17_P03A+005E+10', 'yaleB17_P03A+005E-10', 'yaleB17_P03A+010E+00', 'yaleB17_P03A-005E-10', 'yaleB17_P03A-020E+10', 'yaleB17_P04A+005E-10', 'yaleB17_P04A+010E+00', 'yaleB17_P04A-005E-10', 'yaleB17_P05A+000E+00', 'yaleB17_P05A+005E-10', 'yaleB17_P05A+010E+00', 'yaleB17_P05A-005E-10', 'yaleB17_P06A+000E+00', 'yaleB17_P06A+000E+20', 'yaleB17_P06A+000E-20', 'yaleB17_P06A+005E+10', 'yaleB17_P06A+005E-10', 'yaleB17_P06A+010E+00', 'yaleB17_P06A+010E-20', 'yaleB17_P06A+015E+20', 'yaleB17_P06A+020E+10', 'yaleB17_P06A+035E+15', 'yaleB17_P06A-005E-10', 'yaleB17_P06A-015E+20', 'yaleB17_P06A-020E+10', 'yaleB17_P06A-020E-10', 'yaleB17_P06A-025E+00', 'yaleB17_P07A+000E+00', 'yaleB17_P07A+005E+10', 'yaleB17_P07A+010E+00', 'yaleB17_P07A+015E+20', 'yaleB17_P07A-020E+10', 'yaleB17_P08A+000E+00', 'yaleB17_P08A+005E-10', 'yaleB17_P08A+010E+00', 'yaleB17_P08A-005E-10', 'yaleB18_P00A+010E+00', 'yaleB18_P00A-020E+10', 'yaleB18_P01A+010E+00', 'yaleB18_P02A+000E+00', 'yaleB18_P02A+000E+20', 'yaleB18_P02A+005E+10', 'yaleB18_P02A+005E-10', 'yaleB18_P02A+010E+00', 'yaleB18_P02A+015E+20', 'yaleB18_P02A+020E+10', 'yaleB18_P02A+035E+15', 'yaleB18_P02A-005E-10', 'yaleB18_P02A-020E+10', 'yaleB18_P03A+000E+00', 'yaleB18_P03A+000E+20', 'yaleB18_P03A+000E-20', 'yaleB18_P03A+005E+10', 'yaleB18_P03A+005E-10', 'yaleB18_P03A+010E+00', 'yaleB18_P03A+010E-20', 'yaleB18_P03A+015E+20', 'yaleB18_P03A+020E+10', 'yaleB18_P03A+020E-10', 'yaleB18_P03A+035E+15', 'yaleB18_P03A+060E+20', 'yaleB18_P03A-005E-10', 'yaleB18_P03A-010E+00', 'yaleB18_P03A-015E+20', 'yaleB18_P03A-020E+10', 'yaleB18_P04A+000E+00', 'yaleB18_P04A+005E+10', 'yaleB18_P04A+010E+00', 'yaleB18_P06A+000E+00', 'yaleB18_P06A+000E+20', 'yaleB18_P06A+005E+10', 'yaleB18_P06A+005E-10', 'yaleB18_P06A+010E+00', 'yaleB18_P06A+015E+20', 'yaleB18_P06A+020E+10', 'yaleB18_P06A+035E+15', 'yaleB18_P06A+035E+40', 'yaleB18_P06A+060E+20', 'yaleB18_P06A-005E-10', 'yaleB18_P06A-010E+00', 'yaleB18_P06A-015E+20', 'yaleB18_P06A-020E+10', 'yaleB18_P07A+000E+00', 'yaleB18_P07A+000E+20', 'yaleB18_P07A+005E+10', 'yaleB18_P07A+005E-10', 'yaleB18_P07A+010E+00', 'yaleB18_P07A+015E+20', 'yaleB18_P07A+020E+10', 'yaleB18_P07A+035E+15', 'yaleB18_P07A+060E+20', 'yaleB18_P07A+070E+00', 'yaleB18_P07A-005E-10', 'yaleB18_P07A-010E+00', 'yaleB18_P07A-015E+20', 'yaleB18_P07A-020E+10', 'yaleB18_P08A+000E+00', 'yaleB18_P08A+000E+20', 'yaleB18_P08A+000E-20', 'yaleB18_P08A+005E+10', 'yaleB18_P08A+005E-10', 'yaleB18_P08A+010E+00', 'yaleB18_P08A+010E-20', 'yaleB18_P08A+015E+20', 'yaleB18_P08A+020E+10', 'yaleB18_P08A+020E-10', 'yaleB18_P08A+035E+15', 'yaleB18_P08A-005E-10', 'yaleB18_P08A-010E+00', 'yaleB18_P08A-020E+10', 'yaleB18_P08A-020E-10', 'yaleB22_P00A+000E+20', 'yaleB22_P00A+005E+10', 'yaleB22_P00A+005E-10', 'yaleB22_P00A+010E+00', 'yaleB22_P00A+015E+20', 'yaleB22_P00A+020E+10', 'yaleB22_P00A-005E-10', 'yaleB22_P00A-010E+00', 'yaleB22_P00A-015E+20', 'yaleB22_P00A-020E+10', 'yaleB22_P01A+000E+00', 'yaleB22_P01A+000E+20', 'yaleB22_P01A+005E+10', 'yaleB22_P01A+005E-10', 'yaleB22_P01A+010E+00', 'yaleB22_P01A+015E+20', 'yaleB22_P01A+020E+10', 'yaleB22_P01A-005E-10', 'yaleB22_P01A-010E+00', 'yaleB22_P01A-015E+20', 'yaleB22_P01A-020E+10', 'yaleB22_P02A+000E+00', 'yaleB22_P02A+000E+20', 'yaleB22_P02A+005E+10', 'yaleB22_P02A+005E-10', 'yaleB22_P02A+010E+00', 'yaleB22_P02A+015E+20', 'yaleB22_P02A+020E+10', 'yaleB22_P02A-005E-10', 'yaleB22_P02A-010E+00', 'yaleB22_P02A-015E+20', 'yaleB22_P02A-020E+10', 'yaleB22_P03A+000E+00', 'yaleB22_P03A+000E+20', 'yaleB22_P03A+005E+10', 'yaleB22_P03A+005E-10', 'yaleB22_P03A+010E+00', 'yaleB22_P03A+010E-20', 'yaleB22_P03A+015E+20', 'yaleB22_P03A+020E+10', 'yaleB22_P03A+020E-10', 'yaleB22_P03A+035E+15', 'yaleB22_P03A-005E-10', 'yaleB22_P03A-010E+00', 'yaleB22_P03A-015E+20', 'yaleB22_P03A-020E+10', 'yaleB22_P04A+000E+00', 'yaleB22_P04A+000E+20', 'yaleB22_P04A+005E+10', 'yaleB22_P04A+005E-10', 'yaleB22_P04A+010E+00', 'yaleB22_P04A+010E-20', 'yaleB22_P04A+015E+20', 'yaleB22_P04A+020E+10', 'yaleB22_P04A+020E-10', 'yaleB22_P04A+035E+15', 'yaleB22_P04A-005E-10', 'yaleB22_P04A-010E+00', 'yaleB22_P04A-015E+20', 'yaleB22_P04A-020E+10', 'yaleB22_P05A+000E+00', 'yaleB22_P05A+005E+10', 'yaleB22_P05A+005E-10', 'yaleB22_P05A+010E+00', 'yaleB22_P05A+015E+20', 'yaleB22_P05A+020E+10', 'yaleB22_P05A+020E-10', 'yaleB22_P05A-005E-10', 'yaleB22_P05A-010E+00', 'yaleB22_P05A-020E+10', 'yaleB22_P06A+000E+00', 'yaleB22_P06A+000E+20', 'yaleB22_P06A+005E+10', 'yaleB22_P06A+005E-10', 'yaleB22_P06A+010E+00', 'yaleB22_P06A+010E-20', 'yaleB22_P06A+015E+20', 'yaleB22_P06A+020E+10', 'yaleB22_P06A+020E-10', 'yaleB22_P06A+035E+15', 'yaleB22_P06A+035E+40', 'yaleB22_P06A-005E-10', 'yaleB22_P06A-010E+00', 'yaleB22_P06A-015E+20', 'yaleB22_P06A-020E+10', 'yaleB22_P06A-020E-10', 'yaleB22_P07A+000E+00', 'yaleB22_P07A+000E+20', 'yaleB22_P07A+000E+45', 'yaleB22_P07A+005E+10', 'yaleB22_P07A+005E-10', 'yaleB22_P07A+010E+00', 'yaleB22_P07A+010E-20', 'yaleB22_P07A+015E+20', 'yaleB22_P07A+020E+10', 'yaleB22_P07A+020E-10', 'yaleB22_P07A+035E+15', 'yaleB22_P07A+035E+40', 'yaleB22_P07A-005E+10', 'yaleB22_P07A-005E-10', 'yaleB22_P07A-010E+00', 'yaleB22_P07A-015E+20', 'yaleB22_P07A-020E+10', 'yaleB22_P07A-020E-10', 'yaleB22_P07A-025E+00', 'yaleB22_P08A+000E+00', 'yaleB22_P08A+000E+20', 'yaleB22_P08A+005E+10', 'yaleB22_P08A+005E-10', 'yaleB22_P08A+010E+00', 'yaleB22_P08A+010E-20', 'yaleB22_P08A+015E+20', 'yaleB22_P08A+020E+10', 'yaleB22_P08A+020E-10', 'yaleB22_P08A-005E-10', 'yaleB22_P08A-010E+00', 'yaleB22_P08A-015E+20', 'yaleB22_P08A-020E+10', 'yaleB23_P00A+000E+20', 'yaleB23_P00A+000E+45', 'yaleB23_P00A+000E-20', 'yaleB23_P00A+000E-35', 'yaleB23_P00A+005E+10', 'yaleB23_P00A+005E-10', 'yaleB23_P00A+010E+00', 'yaleB23_P00A+010E-20', 'yaleB23_P00A+015E+20', 'yaleB23_P00A+020E+10', 'yaleB23_P00A+020E-10', 'yaleB23_P00A+025E+00', 'yaleB23_P00A+035E+15', 'yaleB23_P00A+035E+40', 'yaleB23_P00A+035E-20', 'yaleB23_P00A+050E+00', 'yaleB23_P00A+060E+20', 'yaleB23_P00A-005E+10', 'yaleB23_P00A-005E-10', 'yaleB23_P00A-010E+00', 'yaleB23_P00A-010E-20', 'yaleB23_P00A-015E+20', 'yaleB23_P00A-020E+10', 'yaleB23_P00A-020E-10', 'yaleB23_P00A-025E+00', 'yaleB23_P00A-035E+15', 'yaleB23_P00A-035E-20', 'yaleB23_P00A-050E+00', 'yaleB23_P01A+000E+00', 'yaleB23_P01A+000E+20', 'yaleB23_P01A+000E+45', 'yaleB23_P01A+000E-20', 'yaleB23_P01A+005E+10', 'yaleB23_P01A+005E-10', 'yaleB23_P01A+010E+00', 'yaleB23_P01A+010E-20', 'yaleB23_P01A+015E+20', 'yaleB23_P01A+020E+10', 'yaleB23_P01A+020E-10', 'yaleB23_P01A+025E+00', 'yaleB23_P01A+035E+15', 'yaleB23_P01A+035E+40', 'yaleB23_P01A+035E-20', 'yaleB23_P01A+050E+00', 'yaleB23_P01A+060E+20', 'yaleB23_P01A-005E+10', 'yaleB23_P01A-005E-10', 'yaleB23_P01A-010E+00', 'yaleB23_P01A-010E-20', 'yaleB23_P01A-015E+20', 'yaleB23_P01A-020E+10', 'yaleB23_P01A-020E-10', 'yaleB23_P01A-025E+00', 'yaleB23_P01A-035E+15', 'yaleB23_P01A-035E+40', 'yaleB23_P01A-035E-20', 'yaleB23_P01A-050E+00', 'yaleB23_P02A+000E+00', 'yaleB23_P02A+000E+20', 'yaleB23_P02A+000E+45', 'yaleB23_P02A+000E-20', 'yaleB23_P02A+005E+10', 'yaleB23_P02A+005E-10', 'yaleB23_P02A+010E+00', 'yaleB23_P02A+010E-20', 'yaleB23_P02A+015E+20', 'yaleB23_P02A+020E+10', 'yaleB23_P02A+020E-10', 'yaleB23_P02A+025E+00', 'yaleB23_P02A+035E+15', 'yaleB23_P02A+035E+40', 'yaleB23_P02A+035E-20', 'yaleB23_P02A+050E+00', 'yaleB23_P02A+060E+20', 'yaleB23_P02A+060E-20', 'yaleB23_P02A+070E+00', 'yaleB23_P02A+070E+45', 'yaleB23_P02A+085E+20', 'yaleB23_P02A-005E+10', 'yaleB23_P02A-005E-10', 'yaleB23_P02A-010E+00', 'yaleB23_P02A-010E-20', 'yaleB23_P02A-015E+20', 'yaleB23_P02A-020E+10', 'yaleB23_P02A-020E-10', 'yaleB23_P02A-025E+00', 'yaleB23_P02A-035E+15', 'yaleB23_P02A-035E-20', 'yaleB23_P02A-050E+00', 'yaleB23_P03A+000E+00', 'yaleB23_P03A+000E+20', 'yaleB23_P03A+000E+45', 'yaleB23_P03A+000E-20', 'yaleB23_P03A+005E+10', 'yaleB23_P03A+005E-10', 'yaleB23_P03A+010E+00', 'yaleB23_P03A+010E-20', 'yaleB23_P03A+015E+20', 'yaleB23_P03A+020E+10', 'yaleB23_P03A+020E-10', 'yaleB23_P03A+025E+00', 'yaleB23_P03A+035E+15', 'yaleB23_P03A+035E+40', 'yaleB23_P03A+035E-20', 'yaleB23_P03A+050E+00', 'yaleB23_P03A+060E+20', 'yaleB23_P03A-005E+10', 'yaleB23_P03A-005E-10', 'yaleB23_P03A-010E+00', 'yaleB23_P03A-010E-20', 'yaleB23_P03A-015E+20', 'yaleB23_P03A-020E+10', 'yaleB23_P03A-020E-10', 'yaleB23_P03A-025E+00', 'yaleB23_P03A-035E+15', 'yaleB23_P04A+000E+00', 'yaleB23_P04A+000E+20', 'yaleB23_P04A+000E-20', 'yaleB23_P04A+005E+10', 'yaleB23_P04A+005E-10', 'yaleB23_P04A+010E+00', 'yaleB23_P04A+010E-20', 'yaleB23_P04A+015E+20', 'yaleB23_P04A+020E+10', 'yaleB23_P04A+020E-10', 'yaleB23_P04A+035E+15', 'yaleB23_P04A+035E-20', 'yaleB23_P04A+050E+00', 'yaleB23_P04A-005E+10', 'yaleB23_P04A-005E-10', 'yaleB23_P04A-010E+00', 'yaleB23_P04A-010E-20', 'yaleB23_P04A-015E+20', 'yaleB23_P04A-020E+10', 'yaleB23_P04A-020E-10', 'yaleB23_P04A-025E+00', 'yaleB23_P05A+000E+00', 'yaleB23_P05A+000E+20', 'yaleB23_P05A+000E-20', 'yaleB23_P05A+005E+10', 'yaleB23_P05A+005E-10', 'yaleB23_P05A+010E+00', 'yaleB23_P05A+010E-20', 'yaleB23_P05A+015E+20', 'yaleB23_P05A+020E+10', 'yaleB23_P05A+020E-10', 'yaleB23_P05A+035E+15', 'yaleB23_P05A-005E-10', 'yaleB23_P05A-010E+00', 'yaleB23_P05A-010E-20', 'yaleB23_P05A-015E+20', 'yaleB23_P05A-020E+10', 'yaleB23_P05A-020E-10', 'yaleB23_P05A-025E+00', 'yaleB23_P06A+000E+00', 'yaleB23_P06A+000E+20', 'yaleB23_P06A+000E+45', 'yaleB23_P06A+000E-20', 'yaleB23_P06A+005E+10', 'yaleB23_P06A+005E-10', 'yaleB23_P06A+010E+00', 'yaleB23_P06A+010E-20', 'yaleB23_P06A+015E+20', 'yaleB23_P06A+020E+10', 'yaleB23_P06A+020E-10', 'yaleB23_P06A+025E+00', 'yaleB23_P06A+035E+15', 'yaleB23_P06A+035E+40', 'yaleB23_P06A+035E+65', 'yaleB23_P06A+035E-20', 'yaleB23_P06A+050E+00', 'yaleB23_P06A+060E+20', 'yaleB23_P06A+070E+45', 'yaleB23_P06A-005E+10', 'yaleB23_P06A-005E-10', 'yaleB23_P06A-010E+00', 'yaleB23_P06A-010E-20', 'yaleB23_P06A-015E+20', 'yaleB23_P06A-020E+10', 'yaleB23_P06A-020E-10', 'yaleB23_P06A-025E+00', 'yaleB23_P06A-035E+15', 'yaleB23_P06A-035E+40', 'yaleB23_P06A-035E+65', 'yaleB23_P06A-035E-20', 'yaleB23_P06A-050E+00', 'yaleB23_P06A-060E+20', 'yaleB23_P06A-070E+45', 'yaleB23_P07A+000E+00', 'yaleB23_P07A+000E+20', 'yaleB23_P07A+000E+45', 'yaleB23_P07A+000E-20', 'yaleB23_P07A+000E-35', 'yaleB23_P07A+005E+10', 'yaleB23_P07A+005E-10', 'yaleB23_P07A+010E+00', 'yaleB23_P07A+010E-20', 'yaleB23_P07A+015E+20', 'yaleB23_P07A+020E+10', 'yaleB23_P07A+020E-10', 'yaleB23_P07A+025E+00', 'yaleB23_P07A+035E+15', 'yaleB23_P07A+035E+40', 'yaleB23_P07A+035E-20', 'yaleB23_P07A+050E+00', 'yaleB23_P07A+060E+20', 'yaleB23_P07A-005E+10', 'yaleB23_P07A-005E-10', 'yaleB23_P07A-010E+00', 'yaleB23_P07A-010E-20', 'yaleB23_P07A-015E+20', 'yaleB23_P07A-020E+10', 'yaleB23_P07A-020E-10', 'yaleB23_P07A-025E+00', 'yaleB23_P07A-035E+15', 'yaleB23_P07A-035E+40', 'yaleB23_P07A-035E-20', 'yaleB23_P07A-050E+00', 'yaleB23_P08A+000E+00', 'yaleB23_P08A+000E+20', 'yaleB23_P08A+000E+45', 'yaleB23_P08A+000E-20', 'yaleB23_P08A+005E+10', 'yaleB23_P08A+005E-10', 'yaleB23_P08A+010E+00', 'yaleB23_P08A+010E-20', 'yaleB23_P08A+015E+20', 'yaleB23_P08A+020E+10', 'yaleB23_P08A+020E-10', 'yaleB23_P08A+025E+00', 'yaleB23_P08A+035E+15', 'yaleB23_P08A+035E+40', 'yaleB23_P08A+035E-20', 'yaleB23_P08A+050E+00', 'yaleB23_P08A+060E+20', 'yaleB23_P08A-005E+10', 'yaleB23_P08A-005E-10', 'yaleB23_P08A-010E+00', 'yaleB23_P08A-010E-20', 'yaleB23_P08A-015E+20', 'yaleB23_P08A-020E+10', 'yaleB23_P08A-020E-10', 'yaleB23_P08A-025E+00', 'yaleB23_P08A-035E+15', 'yaleB23_P08A-035E-20', 'yaleB23_P08A-050E+00', 'yaleB24_P00A+005E+10', 'yaleB24_P00A+010E+00', 'yaleB24_P00A+015E+20', 'yaleB24_P00A-005E-10', 'yaleB24_P00A-010E+00', 'yaleB24_P00A-015E+20', 'yaleB24_P00A-020E+10', 'yaleB24_P01A+000E+00', 'yaleB24_P01A+000E+20', 'yaleB24_P01A+000E-20', 'yaleB24_P01A+005E+10', 'yaleB24_P01A+005E-10', 'yaleB24_P01A+010E+00', 'yaleB24_P01A+015E+20', 'yaleB24_P01A+020E+10', 'yaleB24_P01A+035E+15', 'yaleB24_P01A-005E-10', 'yaleB24_P01A-010E+00', 'yaleB24_P01A-015E+20', 'yaleB24_P01A-020E+10', 'yaleB24_P01A-020E-10', 'yaleB24_P01A-025E+00', 'yaleB24_P02A+000E+00', 'yaleB24_P02A+000E+20', 'yaleB24_P02A+000E+45', 'yaleB24_P02A+000E-20', 'yaleB24_P02A+005E+10', 'yaleB24_P02A+005E-10', 'yaleB24_P02A+010E+00', 'yaleB24_P02A+010E-20', 'yaleB24_P02A+015E+20', 'yaleB24_P02A+020E+10', 'yaleB24_P02A+020E-10', 'yaleB24_P02A+025E+00', 'yaleB24_P02A+035E+15', 'yaleB24_P02A+035E+40', 'yaleB24_P02A+035E-20', 'yaleB24_P02A+050E+00', 'yaleB24_P02A+060E+20', 'yaleB24_P02A-005E+10', 'yaleB24_P02A-005E-10', 'yaleB24_P02A-010E+00', 'yaleB24_P02A-010E-20', 'yaleB24_P02A-015E+20', 'yaleB24_P02A-020E+10', 'yaleB24_P02A-020E-10', 'yaleB24_P02A-025E+00', 'yaleB24_P02A-035E+15', 'yaleB24_P02A-035E-20', 'yaleB24_P02A-050E+00', 'yaleB24_P03A+000E+00', 'yaleB24_P03A+000E+20', 'yaleB24_P03A+000E+45', 'yaleB24_P03A+000E-20', 'yaleB24_P03A+000E-35', 'yaleB24_P03A+005E+10', 'yaleB24_P03A+005E-10', 'yaleB24_P03A+010E+00', 'yaleB24_P03A+010E-20', 'yaleB24_P03A+015E+20', 'yaleB24_P03A+020E+10', 'yaleB24_P03A+020E-10', 'yaleB24_P03A+025E+00', 'yaleB24_P03A+035E+15', 'yaleB24_P03A+035E+40', 'yaleB24_P03A+035E-20', 'yaleB24_P03A+050E+00', 'yaleB24_P03A+060E+20', 'yaleB24_P03A-005E+10', 'yaleB24_P03A-005E-10', 'yaleB24_P03A-010E+00', 'yaleB24_P03A-010E-20', 'yaleB24_P03A-015E+20', 'yaleB24_P03A-020E+10', 'yaleB24_P03A-020E-10', 'yaleB24_P03A-025E+00', 'yaleB24_P03A-035E+15', 'yaleB24_P03A-035E-20', 'yaleB24_P03A-050E+00', 'yaleB24_P04A+000E+00', 'yaleB24_P04A+010E+00', 'yaleB24_P04A-005E-10', 'yaleB24_P06A+000E+00', 'yaleB24_P06A+000E+20', 'yaleB24_P06A+000E-20', 'yaleB24_P06A+005E+10', 'yaleB24_P06A+005E-10', 'yaleB24_P06A+010E+00', 'yaleB24_P06A+010E-20', 'yaleB24_P06A+015E+20', 'yaleB24_P06A+020E+10', 'yaleB24_P06A+020E-10', 'yaleB24_P06A+035E+15', 'yaleB24_P06A+035E+40', 'yaleB24_P06A+060E+20', 'yaleB24_P06A-005E-10', 'yaleB24_P06A-010E+00', 'yaleB24_P06A-010E-20', 'yaleB24_P06A-015E+20', 'yaleB24_P06A-020E+10', 'yaleB24_P06A-020E-10', 'yaleB24_P06A-025E+00', 'yaleB24_P07A+010E+00', 'yaleB24_P07A+015E+20', 'yaleB24_P07A+020E+10', 'yaleB24_P08A+000E+00', 'yaleB24_P08A+005E+10', 'yaleB24_P08A+005E-10', 'yaleB24_P08A+010E+00', 'yaleB24_P08A+015E+20', 'yaleB24_P08A+020E+10', 'yaleB24_P08A-005E-10', 'yaleB24_P08A-010E+00', 'yaleB24_P08A-020E+10', 'yaleB26_P00A+000E+20', 'yaleB26_P00A+000E+45', 'yaleB26_P00A+000E-20', 'yaleB26_P00A+005E+10', 'yaleB26_P00A+005E-10', 'yaleB26_P00A+010E+00', 'yaleB26_P00A+010E-20', 'yaleB26_P00A+015E+20', 'yaleB26_P00A+020E+10', 'yaleB26_P00A+020E-10', 'yaleB26_P00A+035E+15', 'yaleB26_P00A+035E+40', 'yaleB26_P00A-005E-10', 'yaleB26_P00A-010E+00', 'yaleB26_P00A-010E-20', 'yaleB26_P00A-015E+20', 'yaleB26_P00A-020E+10', 'yaleB26_P00A-020E-10', 'yaleB26_P00A-025E+00', 'yaleB26_P00A-035E+15', 'yaleB26_P01A+000E+00', 'yaleB26_P01A+000E+20', 'yaleB26_P01A+005E+10', 'yaleB26_P01A+005E-10', 'yaleB26_P01A+010E+00', 'yaleB26_P01A+015E+20', 'yaleB26_P01A+020E+10', 'yaleB26_P01A-005E-10', 'yaleB26_P01A-010E+00', 'yaleB26_P01A-015E+20', 'yaleB26_P01A-020E+10', 'yaleB26_P02A+000E+00', 'yaleB26_P02A+000E+20', 'yaleB26_P02A+000E+45', 'yaleB26_P02A+000E-20', 'yaleB26_P02A+005E+10', 'yaleB26_P02A+005E-10', 'yaleB26_P02A+010E+00', 'yaleB26_P02A+010E-20', 'yaleB26_P02A+015E+20', 'yaleB26_P02A+020E+10', 'yaleB26_P02A+020E-10', 'yaleB26_P02A+035E+15', 'yaleB26_P02A+035E+40', 'yaleB26_P02A+060E+20', 'yaleB26_P02A-005E-10', 'yaleB26_P02A-010E+00', 'yaleB26_P02A-015E+20', 'yaleB26_P02A-020E+10', 'yaleB26_P02A-020E-10', 'yaleB26_P02A-025E+00', 'yaleB26_P03A+010E+00', 'yaleB26_P03A+015E+20', 'yaleB26_P04A+000E+00', 'yaleB26_P04A+000E+20', 'yaleB26_P04A+000E-20', 'yaleB26_P04A+005E+10', 'yaleB26_P04A+005E-10', 'yaleB26_P04A+010E+00', 'yaleB26_P04A+010E-20', 'yaleB26_P04A+015E+20', 'yaleB26_P04A+020E+10', 'yaleB26_P04A+035E+15', 'yaleB26_P04A-005E-10', 'yaleB26_P04A-010E+00', 'yaleB26_P04A-015E+20', 'yaleB26_P04A-020E+10', 'yaleB26_P04A-020E-10', 'yaleB26_P05A+000E+00', 'yaleB26_P05A+000E+20', 'yaleB26_P05A+000E-20', 'yaleB26_P05A+005E+10', 'yaleB26_P05A+005E-10', 'yaleB26_P05A+010E+00', 'yaleB26_P05A+010E-20', 'yaleB26_P05A+015E+20', 'yaleB26_P05A+020E+10', 'yaleB26_P05A-005E-10', 'yaleB26_P05A-010E+00', 'yaleB26_P05A-010E-20', 'yaleB26_P05A-015E+20', 'yaleB26_P05A-020E+10', 'yaleB26_P05A-020E-10', 'yaleB26_P05A-025E+00', 'yaleB26_P06A+000E+00', 'yaleB26_P06A+000E+20', 'yaleB26_P06A+005E+10', 'yaleB26_P06A+005E-10', 'yaleB26_P06A+010E+00', 'yaleB26_P06A+015E+20', 'yaleB26_P06A+020E+10', 'yaleB26_P06A+035E+15', 'yaleB26_P06A+035E+40', 'yaleB26_P06A+060E+20', 'yaleB26_P06A-005E-10', 'yaleB26_P06A-010E+00', 'yaleB26_P06A-015E+20', 'yaleB26_P06A-020E+10', 'yaleB26_P07A+000E+00', 'yaleB26_P07A+000E+20', 'yaleB26_P07A+000E+45', 'yaleB26_P07A+000E-20', 'yaleB26_P07A+005E+10', 'yaleB26_P07A+005E-10', 'yaleB26_P07A+010E+00', 'yaleB26_P07A+010E-20', 'yaleB26_P07A+015E+20', 'yaleB26_P07A+020E+10', 'yaleB26_P07A+020E-10', 'yaleB26_P07A+035E+15', 'yaleB26_P07A+035E+40', 'yaleB26_P07A+035E-20', 'yaleB26_P07A+050E+00', 'yaleB26_P07A+060E+20', 'yaleB26_P07A-005E+10', 'yaleB26_P07A-005E-10', 'yaleB26_P07A-010E+00', 'yaleB26_P07A-010E-20', 'yaleB26_P07A-015E+20', 'yaleB26_P07A-020E+10', 'yaleB26_P07A-020E-10', 'yaleB26_P07A-025E+00', 'yaleB26_P08A+000E+00', 'yaleB26_P08A+000E+20', 'yaleB26_P08A+000E-20', 'yaleB26_P08A+005E+10', 'yaleB26_P08A+005E-10', 'yaleB26_P08A+010E+00', 'yaleB26_P08A+010E-20', 'yaleB26_P08A+015E+20', 'yaleB26_P08A+020E+10', 'yaleB26_P08A+020E-10', 'yaleB26_P08A+035E+15', 'yaleB26_P08A+035E+40', 'yaleB26_P08A+060E+20', 'yaleB26_P08A-005E-10', 'yaleB26_P08A-010E+00', 'yaleB26_P08A-010E-20', 'yaleB26_P08A-015E+20', 'yaleB26_P08A-020E+10', 'yaleB26_P08A-020E-10', 'yaleB26_P08A-025E+00', 'yaleB27_P00A+000E+20', 'yaleB27_P00A+000E-20', 'yaleB27_P00A+000E-35', 'yaleB27_P00A+005E+10', 'yaleB27_P00A+005E-10', 'yaleB27_P00A+010E+00', 'yaleB27_P00A+010E-20', 'yaleB27_P00A+015E+20', 'yaleB27_P00A+020E+10', 'yaleB27_P00A+020E-10', 'yaleB27_P00A+020E-40', 'yaleB27_P00A+025E+00', 'yaleB27_P00A+035E+15', 'yaleB27_P00A+035E-20', 'yaleB27_P00A+050E+00', 'yaleB27_P00A-005E+10', 'yaleB27_P00A-005E-10', 'yaleB27_P00A-010E+00', 'yaleB27_P00A-010E-20', 'yaleB27_P00A-015E+20', 'yaleB27_P00A-020E+10', 'yaleB27_P00A-020E-10', 'yaleB27_P00A-020E-40', 'yaleB27_P00A-025E+00', 'yaleB27_P00A-035E+15', 'yaleB27_P00A-035E-20', 'yaleB27_P00A-050E+00', 'yaleB27_P01A+000E+00', 'yaleB27_P01A+000E+20', 'yaleB27_P01A+000E+45', 'yaleB27_P01A+000E-20', 'yaleB27_P01A+005E+10', 'yaleB27_P01A+005E-10', 'yaleB27_P01A+010E+00', 'yaleB27_P01A+010E-20', 'yaleB27_P01A+015E+20', 'yaleB27_P01A+020E+10', 'yaleB27_P01A+020E-10', 'yaleB27_P01A+025E+00', 'yaleB27_P01A+035E+15', 'yaleB27_P01A+035E-20', 'yaleB27_P01A+050E+00', 'yaleB27_P01A+060E+20', 'yaleB27_P01A-005E+10', 'yaleB27_P01A-005E-10', 'yaleB27_P01A-010E+00', 'yaleB27_P01A-010E-20', 'yaleB27_P01A-015E+20', 'yaleB27_P01A-020E+10', 'yaleB27_P01A-020E-10', 'yaleB27_P01A-025E+00', 'yaleB27_P01A-035E+15', 'yaleB27_P01A-035E-20', 'yaleB27_P01A-050E+00', 'yaleB27_P02A+000E+00', 'yaleB27_P02A+000E+20', 'yaleB27_P02A+000E+45', 'yaleB27_P02A+000E-20', 'yaleB27_P02A+000E-35', 'yaleB27_P02A+005E+10', 'yaleB27_P02A+005E-10', 'yaleB27_P02A+010E+00', 'yaleB27_P02A+010E-20', 'yaleB27_P02A+015E+20', 'yaleB27_P02A+020E+10', 'yaleB27_P02A+020E-10', 'yaleB27_P02A+025E+00', 'yaleB27_P02A+035E+15', 'yaleB27_P02A+035E+40', 'yaleB27_P02A+035E-20', 'yaleB27_P02A+050E+00', 'yaleB27_P02A+060E+20', 'yaleB27_P02A-005E+10', 'yaleB27_P02A-005E-10', 'yaleB27_P02A-010E+00', 'yaleB27_P02A-010E-20', 'yaleB27_P02A-015E+20', 'yaleB27_P02A-020E+10', 'yaleB27_P02A-020E-10', 'yaleB27_P02A-020E-40', 'yaleB27_P02A-025E+00', 'yaleB27_P02A-035E+15', 'yaleB27_P02A-035E+40', 'yaleB27_P02A-035E-20', 'yaleB27_P02A-050E+00', 'yaleB27_P03A+000E+00', 'yaleB27_P03A+000E+20', 'yaleB27_P03A+000E-20', 'yaleB27_P03A+005E+10', 'yaleB27_P03A+005E-10', 'yaleB27_P03A+010E+00', 'yaleB27_P03A+010E-20', 'yaleB27_P03A+015E+20', 'yaleB27_P03A+020E+10', 'yaleB27_P03A+020E-10', 'yaleB27_P03A+025E+00', 'yaleB27_P03A+035E+15', 'yaleB27_P03A+035E-20', 'yaleB27_P03A+050E+00', 'yaleB27_P03A-005E+10', 'yaleB27_P03A-005E-10', 'yaleB27_P03A-010E+00', 'yaleB27_P03A-010E-20', 'yaleB27_P03A-015E+20', 'yaleB27_P03A-020E+10', 'yaleB27_P03A-020E-10', 'yaleB27_P03A-025E+00', 'yaleB27_P03A-035E+15', 'yaleB27_P03A-035E-20', 'yaleB27_P03A-050E+00', 'yaleB27_P04A+000E+00', 'yaleB27_P04A+000E+20', 'yaleB27_P04A+000E-20', 'yaleB27_P04A+005E+10', 'yaleB27_P04A+005E-10', 'yaleB27_P04A+010E+00', 'yaleB27_P04A+010E-20', 'yaleB27_P04A+015E+20', 'yaleB27_P04A+020E+10', 'yaleB27_P04A+020E-10', 'yaleB27_P04A+035E+15', 'yaleB27_P04A-005E+10', 'yaleB27_P04A-005E-10', 'yaleB27_P04A-010E+00', 'yaleB27_P04A-010E-20', 'yaleB27_P04A-015E+20', 'yaleB27_P04A-020E+10', 'yaleB27_P04A-020E-10', 'yaleB27_P04A-025E+00', 'yaleB27_P04A-035E-20', 'yaleB27_P05A+000E+00', 'yaleB27_P05A+000E+20', 'yaleB27_P05A+000E-20', 'yaleB27_P05A+005E+10', 'yaleB27_P05A+005E-10', 'yaleB27_P05A+010E+00', 'yaleB27_P05A+010E-20', 'yaleB27_P05A+015E+20', 'yaleB27_P05A+020E+10', 'yaleB27_P05A+020E-10', 'yaleB27_P05A-005E-10', 'yaleB27_P05A-010E+00', 'yaleB27_P05A-010E-20', 'yaleB27_P05A-015E+20', 'yaleB27_P05A-020E+10', 'yaleB27_P05A-020E-10', 'yaleB27_P05A-025E+00', 'yaleB27_P06A+000E+00', 'yaleB27_P06A+000E+20', 'yaleB27_P06A+000E+45', 'yaleB27_P06A+000E-20', 'yaleB27_P06A+000E-35', 'yaleB27_P06A+005E+10', 'yaleB27_P06A+005E-10', 'yaleB27_P06A+010E+00', 'yaleB27_P06A+010E-20', 'yaleB27_P06A+015E+20', 'yaleB27_P06A+020E+10', 'yaleB27_P06A+020E-10', 'yaleB27_P06A+025E+00', 'yaleB27_P06A+035E+15', 'yaleB27_P06A+035E+40', 'yaleB27_P06A+035E-20', 'yaleB27_P06A+050E+00', 'yaleB27_P06A+060E+20', 'yaleB27_P06A-005E+10', 'yaleB27_P06A-005E-10', 'yaleB27_P06A-010E+00', 'yaleB27_P06A-010E-20', 'yaleB27_P06A-015E+20', 'yaleB27_P06A-020E+10', 'yaleB27_P06A-020E-10', 'yaleB27_P06A-025E+00', 'yaleB27_P06A-035E+15', 'yaleB27_P06A-035E+40', 'yaleB27_P06A-035E-20', 'yaleB27_P06A-050E+00', 'yaleB27_P06A-060E+20', 'yaleB27_P07A+000E+00', 'yaleB27_P07A+000E+20', 'yaleB27_P07A+000E-20', 'yaleB27_P07A+000E-35', 'yaleB27_P07A+005E+10', 'yaleB27_P07A+005E-10', 'yaleB27_P07A+010E+00', 'yaleB27_P07A+010E-20', 'yaleB27_P07A+015E+20', 'yaleB27_P07A+020E+10', 'yaleB27_P07A+020E-10', 'yaleB27_P07A+025E+00', 'yaleB27_P07A+035E+15', 'yaleB27_P07A+035E-20', 'yaleB27_P07A+050E+00', 'yaleB27_P07A-005E+10', 'yaleB27_P07A-005E-10', 'yaleB27_P07A-010E+00', 'yaleB27_P07A-010E-20', 'yaleB27_P07A-015E+20', 'yaleB27_P07A-020E+10', 'yaleB27_P07A-020E-10', 'yaleB27_P07A-020E-40', 'yaleB27_P07A-025E+00', 'yaleB27_P07A-035E+15', 'yaleB27_P07A-035E-20', 'yaleB27_P07A-050E+00', 'yaleB27_P08A+000E+00', 'yaleB27_P08A+000E+20', 'yaleB27_P08A+000E-20', 'yaleB27_P08A+005E+10', 'yaleB27_P08A+005E-10', 'yaleB27_P08A+010E+00', 'yaleB27_P08A+010E-20', 'yaleB27_P08A+015E+20', 'yaleB27_P08A+020E+10', 'yaleB27_P08A+020E-10', 'yaleB27_P08A-005E-10', 'yaleB27_P08A-010E+00', 'yaleB27_P08A-010E-20', 'yaleB27_P08A-015E+20', 'yaleB27_P08A-020E+10', 'yaleB27_P08A-020E-10', 'yaleB27_P08A-025E+00', 'yaleB27_P08A-035E-20', 'yaleB28_P00A+010E+00', 'yaleB29_P00A+000E+20', 'yaleB29_P00A+000E-20', 'yaleB29_P00A+000E-35', 'yaleB29_P00A+005E+10', 'yaleB29_P00A+005E-10', 'yaleB29_P00A+010E+00', 'yaleB29_P00A+010E-20', 'yaleB29_P00A+015E+20', 'yaleB29_P00A+020E+10', 'yaleB29_P00A+020E-10', 'yaleB29_P00A+025E+00', 'yaleB29_P00A+035E+15', 'yaleB29_P00A+035E-20', 'yaleB29_P00A-005E+10', 'yaleB29_P00A-005E-10', 'yaleB29_P00A-010E+00', 'yaleB29_P00A-010E-20', 'yaleB29_P00A-015E+20', 'yaleB29_P00A-020E+10', 'yaleB29_P00A-020E-10', 'yaleB29_P00A-020E-40', 'yaleB29_P00A-025E+00', 'yaleB29_P00A-035E+15', 'yaleB29_P00A-035E-20', 'yaleB29_P01A+000E+00', 'yaleB29_P01A+000E+20', 'yaleB29_P01A+000E+45', 'yaleB29_P01A+000E-20', 'yaleB29_P01A+000E-35', 'yaleB29_P01A+005E+10', 'yaleB29_P01A+005E-10', 'yaleB29_P01A+010E+00', 'yaleB29_P01A+010E-20', 'yaleB29_P01A+015E+20', 'yaleB29_P01A+020E+10', 'yaleB29_P01A+020E-10', 'yaleB29_P01A+025E+00', 'yaleB29_P01A+035E+15', 'yaleB29_P01A+035E+40', 'yaleB29_P01A+035E-20', 'yaleB29_P01A+050E+00', 'yaleB29_P01A+060E+20', 'yaleB29_P01A-005E+10', 'yaleB29_P01A-005E-10', 'yaleB29_P01A-010E+00', 'yaleB29_P01A-010E-20', 'yaleB29_P01A-015E+20', 'yaleB29_P01A-020E+10', 'yaleB29_P01A-020E-10', 'yaleB29_P01A-025E+00', 'yaleB29_P01A-035E+15', 'yaleB29_P01A-035E+40', 'yaleB29_P01A-050E+00', 'yaleB29_P02A+000E+00', 'yaleB29_P02A+000E+20', 'yaleB29_P02A+000E-20', 'yaleB29_P02A+005E+10', 'yaleB29_P02A+005E-10', 'yaleB29_P02A+010E+00', 'yaleB29_P02A+010E-20', 'yaleB29_P02A+015E+20', 'yaleB29_P02A+020E+10', 'yaleB29_P02A+020E-10', 'yaleB29_P02A+035E+15', 'yaleB29_P02A+035E+40', 'yaleB29_P02A+060E+20', 'yaleB29_P02A-005E+10', 'yaleB29_P02A-005E-10', 'yaleB29_P02A-010E+00', 'yaleB29_P02A-010E-20', 'yaleB29_P02A-015E+20', 'yaleB29_P02A-020E+10', 'yaleB29_P02A-020E-10', 'yaleB29_P02A-025E+00', 'yaleB29_P03A+000E+00', 'yaleB29_P03A+000E+20', 'yaleB29_P03A+000E-20', 'yaleB29_P03A+005E+10', 'yaleB29_P03A+005E-10', 'yaleB29_P03A+010E+00', 'yaleB29_P03A+010E-20', 'yaleB29_P03A+015E+20', 'yaleB29_P03A+020E+10', 'yaleB29_P03A+020E-10', 'yaleB29_P03A+025E+00', 'yaleB29_P03A+035E+15', 'yaleB29_P03A+035E-20', 'yaleB29_P03A+050E+00', 'yaleB29_P03A+060E+20', 'yaleB29_P03A-005E+10', 'yaleB29_P03A-005E-10', 'yaleB29_P03A-010E+00', 'yaleB29_P03A-010E-20', 'yaleB29_P03A-015E+20', 'yaleB29_P03A-020E+10', 'yaleB29_P03A-020E-10', 'yaleB29_P03A-025E+00', 'yaleB29_P04A+000E+00', 'yaleB29_P04A+000E-20', 'yaleB29_P04A+005E+10', 'yaleB29_P04A+005E-10', 'yaleB29_P04A+010E+00', 'yaleB29_P04A+010E-20', 'yaleB29_P04A+015E+20', 'yaleB29_P04A+020E+10', 'yaleB29_P04A+020E-10', 'yaleB29_P04A+035E+15', 'yaleB29_P04A+035E-20', 'yaleB29_P04A-005E-10', 'yaleB29_P04A-010E+00', 'yaleB29_P04A-010E-20', 'yaleB29_P04A-020E+10', 'yaleB29_P04A-020E-10', 'yaleB29_P04A-025E+00', 'yaleB29_P05A+000E+00', 'yaleB29_P05A+000E-20', 'yaleB29_P05A+005E-10', 'yaleB29_P05A+010E+00', 'yaleB29_P05A-005E-10', 'yaleB29_P05A-010E+00', 'yaleB29_P05A-010E-20', 'yaleB29_P05A-020E+10', 'yaleB29_P05A-020E-10', 'yaleB29_P06A+000E+00', 'yaleB29_P06A+000E+20', 'yaleB29_P06A+000E+45', 'yaleB29_P06A+000E-20', 'yaleB29_P06A+005E+10', 'yaleB29_P06A+005E-10', 'yaleB29_P06A+010E+00', 'yaleB29_P06A+010E-20', 'yaleB29_P06A+015E+20', 'yaleB29_P06A+020E+10', 'yaleB29_P06A+020E-10', 'yaleB29_P06A+025E+00', 'yaleB29_P06A+035E+15', 'yaleB29_P06A+035E+40', 'yaleB29_P06A+035E-20', 'yaleB29_P06A+050E+00', 'yaleB29_P06A+060E+20', 'yaleB29_P06A-005E+10', 'yaleB29_P06A-005E-10', 'yaleB29_P06A-010E+00', 'yaleB29_P06A-010E-20', 'yaleB29_P06A-015E+20', 'yaleB29_P06A-020E+10', 'yaleB29_P06A-020E-10', 'yaleB29_P06A-025E+00', 'yaleB29_P07A+000E+00', 'yaleB29_P07A+000E+20', 'yaleB29_P07A+000E-20', 'yaleB29_P07A+005E+10', 'yaleB29_P07A+005E-10', 'yaleB29_P07A+010E+00', 'yaleB29_P07A+010E-20', 'yaleB29_P07A+015E+20', 'yaleB29_P07A+020E+10', 'yaleB29_P07A+020E-10', 'yaleB29_P07A+035E+15', 'yaleB29_P07A+035E-20', 'yaleB29_P07A+050E+00', 'yaleB29_P07A-005E-10', 'yaleB29_P07A-010E+00', 'yaleB29_P07A-010E-20', 'yaleB29_P07A-020E+10', 'yaleB29_P07A-020E-10', 'yaleB29_P08A+000E-20', 'yaleB29_P08A+005E-10', 'yaleB29_P08A+010E+00', 'yaleB29_P08A+010E-20', 'yaleB30_P00A+000E+20', 'yaleB30_P00A+000E+45', 'yaleB30_P00A+000E-20', 'yaleB30_P00A+005E+10', 'yaleB30_P00A+005E-10', 'yaleB30_P00A+010E+00', 'yaleB30_P00A+010E-20', 'yaleB30_P00A+015E+20', 'yaleB30_P00A+020E+10', 'yaleB30_P00A+020E-10', 'yaleB30_P00A+025E+00', 'yaleB30_P00A+035E+15', 'yaleB30_P00A+035E+40', 'yaleB30_P00A+035E-20', 'yaleB30_P00A+050E+00', 'yaleB30_P00A+060E+20', 'yaleB30_P00A-005E+10', 'yaleB30_P00A-005E-10', 'yaleB30_P00A-010E+00', 'yaleB30_P00A-010E-20', 'yaleB30_P00A-015E+20', 'yaleB30_P00A-020E+10', 'yaleB30_P00A-020E-10', 'yaleB30_P00A-025E+00', 'yaleB30_P00A-035E+15', 'yaleB30_P00A-035E+40', 'yaleB30_P00A-035E-20', 'yaleB30_P00A-050E+00', 'yaleB30_P00A-060E+20', 'yaleB30_P01A+000E+00', 'yaleB30_P01A+000E+20', 'yaleB30_P01A+005E+10', 'yaleB30_P01A+010E+00', 'yaleB30_P01A+015E+20', 'yaleB30_P01A-015E+20', 'yaleB30_P01A-020E+10', 'yaleB30_P03A+000E+00', 'yaleB30_P03A+000E+20', 'yaleB30_P03A+000E+45', 'yaleB30_P03A+000E-20', 'yaleB30_P03A+005E+10', 'yaleB30_P03A+005E-10', 'yaleB30_P03A+010E+00', 'yaleB30_P03A+010E-20', 'yaleB30_P03A+015E+20', 'yaleB30_P03A+020E+10', 'yaleB30_P03A+020E-10', 'yaleB30_P03A+035E+15', 'yaleB30_P03A+060E+20', 'yaleB30_P03A-005E+10', 'yaleB30_P03A-005E-10', 'yaleB30_P03A-010E+00', 'yaleB30_P03A-010E-20', 'yaleB30_P03A-015E+20', 'yaleB30_P03A-020E+10', 'yaleB30_P03A-020E-10', 'yaleB30_P03A-025E+00', 'yaleB30_P03A-035E+15', 'yaleB30_P03A-035E-20', 'yaleB30_P03A-050E+00', 'yaleB30_P04A+000E+00', 'yaleB30_P04A+000E+20', 'yaleB30_P04A+000E+45', 'yaleB30_P04A+000E-20', 'yaleB30_P04A+000E-35', 'yaleB30_P04A+005E+10', 'yaleB30_P04A+005E-10', 'yaleB30_P04A+010E+00', 'yaleB30_P04A+010E-20', 'yaleB30_P04A+015E+20', 'yaleB30_P04A+020E+10', 'yaleB30_P04A+020E-10', 'yaleB30_P04A+025E+00', 'yaleB30_P04A+035E+15', 'yaleB30_P04A+035E+40', 'yaleB30_P04A+035E-20', 'yaleB30_P04A+050E+00', 'yaleB30_P04A+060E+20', 'yaleB30_P04A-005E+10', 'yaleB30_P04A-005E-10', 'yaleB30_P04A-010E+00', 'yaleB30_P04A-010E-20', 'yaleB30_P04A-015E+20', 'yaleB30_P04A-020E+10', 'yaleB30_P04A-020E-10', 'yaleB30_P04A-025E+00', 'yaleB30_P04A-035E+15', 'yaleB30_P04A-035E+40', 'yaleB30_P04A-035E-20', 'yaleB30_P05A+000E+00', 'yaleB30_P05A+000E+20', 'yaleB30_P05A+000E+45', 'yaleB30_P05A+000E-20', 'yaleB30_P05A+000E-35', 'yaleB30_P05A+005E+10', 'yaleB30_P05A+005E-10', 'yaleB30_P05A+010E+00', 'yaleB30_P05A+010E-20', 'yaleB30_P05A+015E+20', 'yaleB30_P05A+020E+10', 'yaleB30_P05A+020E-10', 'yaleB30_P05A+025E+00', 'yaleB30_P05A+035E+15', 'yaleB30_P05A+035E+40', 'yaleB30_P05A+035E-20', 'yaleB30_P05A-005E+10', 'yaleB30_P05A-005E-10', 'yaleB30_P05A-010E+00', 'yaleB30_P05A-010E-20', 'yaleB30_P05A-015E+20', 'yaleB30_P05A-020E+10', 'yaleB30_P05A-020E-10', 'yaleB30_P05A-025E+00', 'yaleB30_P05A-035E+15', 'yaleB30_P07A+000E+00', 'yaleB30_P07A+000E+20', 'yaleB30_P07A+000E+45', 'yaleB30_P07A+000E-20', 'yaleB30_P07A+005E+10', 'yaleB30_P07A+005E-10', 'yaleB30_P07A+010E+00', 'yaleB30_P07A+010E-20', 'yaleB30_P07A+015E+20', 'yaleB30_P07A+020E+10', 'yaleB30_P07A+020E-10', 'yaleB30_P07A+035E+15', 'yaleB30_P07A+035E+40', 'yaleB30_P07A+060E+20', 'yaleB30_P07A-005E+10', 'yaleB30_P07A-005E-10', 'yaleB30_P07A-010E+00', 'yaleB30_P07A-010E-20', 'yaleB30_P07A-015E+20', 'yaleB30_P07A-020E+10', 'yaleB30_P07A-020E-10', 'yaleB30_P07A-025E+00', 'yaleB30_P07A-035E+15', 'yaleB30_P07A-035E+40', 'yaleB30_P07A-035E-20', 'yaleB30_P07A-050E+00', 'yaleB30_P08A+000E+00', 'yaleB30_P08A+000E+20', 'yaleB30_P08A+000E-20', 'yaleB30_P08A+005E+10', 'yaleB30_P08A+005E-10', 'yaleB30_P08A+010E+00', 'yaleB30_P08A+010E-20', 'yaleB30_P08A+015E+20', 'yaleB30_P08A+020E+10', 'yaleB30_P08A+020E-10', 'yaleB30_P08A+035E+15', 'yaleB30_P08A-005E+10', 'yaleB30_P08A-005E-10', 'yaleB30_P08A-010E+00', 'yaleB30_P08A-010E-20', 'yaleB30_P08A-015E+20', 'yaleB30_P08A-020E+10', 'yaleB30_P08A-020E-10', 'yaleB30_P08A-025E+00', 'yaleB33_P00A+000E+20', 'yaleB33_P00A+000E-20', 'yaleB33_P00A+005E+10', 'yaleB33_P00A+005E-10', 'yaleB33_P00A+010E+00', 'yaleB33_P00A+010E-20', 'yaleB33_P00A+015E+20', 'yaleB33_P00A+020E+10', 'yaleB33_P00A+020E-10', 'yaleB33_P00A+035E+15', 'yaleB33_P00A-005E+10', 'yaleB33_P00A-005E-10', 'yaleB33_P00A-010E+00', 'yaleB33_P00A-010E-20', 'yaleB33_P00A-015E+20', 'yaleB33_P00A-020E+10', 'yaleB33_P00A-020E-10', 'yaleB33_P00A-025E+00', 'yaleB33_P01A+000E+00', 'yaleB33_P01A+000E+20', 'yaleB33_P01A+000E+45', 'yaleB33_P01A+000E-20', 'yaleB33_P01A+005E+10', 'yaleB33_P01A+005E-10', 'yaleB33_P01A+010E+00', 'yaleB33_P01A+010E-20', 'yaleB33_P01A+015E+20', 'yaleB33_P01A+020E+10', 'yaleB33_P01A+020E-10', 'yaleB33_P01A+025E+00', 'yaleB33_P01A+035E+15', 'yaleB33_P01A+035E+40', 'yaleB33_P01A+035E-20', 'yaleB33_P01A+050E+00', 'yaleB33_P01A+060E+20', 'yaleB33_P01A-005E+10', 'yaleB33_P01A-005E-10', 'yaleB33_P01A-010E+00', 'yaleB33_P01A-010E-20', 'yaleB33_P01A-015E+20', 'yaleB33_P01A-020E+10', 'yaleB33_P01A-020E-10', 'yaleB33_P01A-025E+00', 'yaleB33_P01A-035E+15', 'yaleB33_P02A+000E+00', 'yaleB33_P02A+000E+20', 'yaleB33_P02A+000E+45', 'yaleB33_P02A+000E-20', 'yaleB33_P02A+005E+10', 'yaleB33_P02A+005E-10', 'yaleB33_P02A+010E+00', 'yaleB33_P02A+010E-20', 'yaleB33_P02A+015E+20', 'yaleB33_P02A+020E+10', 'yaleB33_P02A+020E-10', 'yaleB33_P02A+025E+00', 'yaleB33_P02A+035E+15', 'yaleB33_P02A+035E+40', 'yaleB33_P02A+035E-20', 'yaleB33_P02A+050E+00', 'yaleB33_P02A+060E+20', 'yaleB33_P02A-005E+10', 'yaleB33_P02A-005E-10', 'yaleB33_P02A-010E+00', 'yaleB33_P02A-010E-20', 'yaleB33_P02A-015E+20', 'yaleB33_P02A-020E+10', 'yaleB33_P02A-020E-10', 'yaleB33_P02A-025E+00', 'yaleB33_P02A-035E+15', 'yaleB33_P03A+000E+00', 'yaleB33_P03A+000E+20', 'yaleB33_P03A+000E-20', 'yaleB33_P03A+005E+10', 'yaleB33_P03A+005E-10', 'yaleB33_P03A+010E+00', 'yaleB33_P03A+010E-20', 'yaleB33_P03A+015E+20', 'yaleB33_P03A+020E+10', 'yaleB33_P03A+020E-10', 'yaleB33_P03A+035E+15', 'yaleB33_P03A-005E+10', 'yaleB33_P03A-005E-10', 'yaleB33_P03A-010E+00', 'yaleB33_P03A-010E-20', 'yaleB33_P03A-015E+20', 'yaleB33_P03A-020E+10', 'yaleB33_P03A-020E-10', 'yaleB33_P03A-025E+00', 'yaleB33_P04A+000E+00', 'yaleB33_P04A+000E+20', 'yaleB33_P04A+000E-20', 'yaleB33_P04A+005E+10', 'yaleB33_P04A+005E-10', 'yaleB33_P04A+010E+00', 'yaleB33_P04A+010E-20', 'yaleB33_P04A+015E+20', 'yaleB33_P04A+020E+10', 'yaleB33_P04A+020E-10', 'yaleB33_P04A+035E+15', 'yaleB33_P04A+035E-20', 'yaleB33_P04A-005E+10', 'yaleB33_P04A-005E-10', 'yaleB33_P04A-010E+00', 'yaleB33_P04A-010E-20', 'yaleB33_P04A-015E+20', 'yaleB33_P04A-020E+10', 'yaleB33_P04A-020E-10', 'yaleB33_P04A-025E+00', 'yaleB33_P05A+000E+00', 'yaleB33_P05A+000E+20', 'yaleB33_P05A+000E-20', 'yaleB33_P05A+005E+10', 'yaleB33_P05A+005E-10', 'yaleB33_P05A+010E+00', 'yaleB33_P05A+015E+20', 'yaleB33_P05A+020E+10', 'yaleB33_P05A-005E-10', 'yaleB33_P05A-010E+00', 'yaleB33_P05A-015E+20', 'yaleB33_P05A-020E+10', 'yaleB33_P06A+000E+00', 'yaleB33_P06A+000E+20', 'yaleB33_P06A+000E+45', 'yaleB33_P06A+000E-20', 'yaleB33_P06A+005E+10', 'yaleB33_P06A+005E-10', 'yaleB33_P06A+010E+00', 'yaleB33_P06A+010E-20', 'yaleB33_P06A+015E+20', 'yaleB33_P06A+020E+10', 'yaleB33_P06A+020E-10', 'yaleB33_P06A+035E+15', 'yaleB33_P06A+035E+40', 'yaleB33_P06A+060E+20', 'yaleB33_P06A-005E+10', 'yaleB33_P06A-005E-10', 'yaleB33_P06A-010E+00', 'yaleB33_P06A-010E-20', 'yaleB33_P06A-015E+20', 'yaleB33_P06A-020E+10', 'yaleB33_P06A-020E-10', 'yaleB33_P06A-025E+00', 'yaleB33_P06A-035E+15', 'yaleB33_P07A+000E+00', 'yaleB33_P07A+000E+20', 'yaleB33_P07A+000E-20', 'yaleB33_P07A+005E+10', 'yaleB33_P07A+005E-10', 'yaleB33_P07A+010E+00', 'yaleB33_P07A+010E-20', 'yaleB33_P07A+015E+20', 'yaleB33_P07A+020E+10', 'yaleB33_P07A+020E-10', 'yaleB33_P07A+035E+15', 'yaleB33_P07A-005E+10', 'yaleB33_P07A-005E-10', 'yaleB33_P07A-010E+00', 'yaleB33_P07A-010E-20', 'yaleB33_P07A-015E+20', 'yaleB33_P07A-020E+10', 'yaleB33_P07A-020E-10', 'yaleB33_P07A-025E+00', 'yaleB33_P07A-035E+15', 'yaleB33_P08A+000E+00', 'yaleB33_P08A+000E+20', 'yaleB33_P08A+000E-20', 'yaleB33_P08A+005E+10', 'yaleB33_P08A+005E-10', 'yaleB33_P08A+010E+00', 'yaleB33_P08A+010E-20', 'yaleB33_P08A+015E+20', 'yaleB33_P08A+020E+10', 'yaleB33_P08A+020E-10', 'yaleB33_P08A+035E+15', 'yaleB33_P08A-005E+10', 'yaleB33_P08A-005E-10', 'yaleB33_P08A-010E+00', 'yaleB33_P08A-010E-20', 'yaleB33_P08A-015E+20', 'yaleB33_P08A-020E+10', 'yaleB33_P08A-020E-10', 'yaleB33_P08A-025E+00', 'yaleB34_P03A+000E+00', 'yaleB34_P03A+000E-20', 'yaleB34_P03A+005E-10', 'yaleB34_P03A+010E+00', 'yaleB34_P03A-005E-10', 'yaleB35_P02A+000E+00', 'yaleB35_P02A+000E+20', 'yaleB35_P02A+005E+10', 'yaleB35_P02A+005E-10', 'yaleB35_P02A+010E+00', 'yaleB35_P02A+015E+20', 'yaleB35_P02A+020E+10', 'yaleB35_P02A+035E+15', 'yaleB35_P02A-005E-10', 'yaleB35_P02A-010E+00', 'yaleB35_P02A-015E+20', 'yaleB35_P02A-020E+10', 'yaleB35_P03A+000E+00', 'yaleB35_P03A+000E+20', 'yaleB35_P03A+005E+10', 'yaleB35_P03A+005E-10', 'yaleB35_P03A+010E+00', 'yaleB35_P03A+015E+20', 'yaleB35_P03A+020E+10', 'yaleB35_P03A-005E-10', 'yaleB35_P03A-010E+00', 'yaleB35_P03A-020E+10', 'yaleB35_P04A+000E+00', 'yaleB35_P04A+000E+20', 'yaleB35_P04A+000E-20', 'yaleB35_P04A+005E+10', 'yaleB35_P04A+005E-10', 'yaleB35_P04A+010E+00', 'yaleB35_P04A+010E-20', 'yaleB35_P04A+015E+20', 'yaleB35_P04A+020E+10', 'yaleB35_P04A+020E-10', 'yaleB35_P04A+035E+15', 'yaleB35_P04A-005E-10', 'yaleB35_P04A-010E+00', 'yaleB35_P04A-010E-20', 'yaleB35_P04A-015E+20', 'yaleB35_P04A-020E+10', 'yaleB35_P04A-020E-10', 'yaleB35_P04A-025E+00', 'yaleB35_P05A+000E+00', 'yaleB35_P05A+000E+20', 'yaleB35_P05A+000E-20', 'yaleB35_P05A+005E+10', 'yaleB35_P05A+005E-10', 'yaleB35_P05A+010E+00', 'yaleB35_P05A+010E-20', 'yaleB35_P05A+015E+20', 'yaleB35_P05A+020E+10', 'yaleB35_P05A+020E-10', 'yaleB35_P05A-005E-10', 'yaleB35_P05A-010E+00', 'yaleB35_P05A-010E-20', 'yaleB35_P05A-020E+10', 'yaleB35_P05A-020E-10', 'yaleB35_P05A-025E+00', 'yaleB35_P06A+000E+00', 'yaleB35_P06A+000E+20', 'yaleB35_P06A+000E+45', 'yaleB35_P06A+000E-20', 'yaleB35_P06A+005E+10', 'yaleB35_P06A+005E-10', 'yaleB35_P06A+010E+00', 'yaleB35_P06A+010E-20', 'yaleB35_P06A+015E+20', 'yaleB35_P06A+020E+10', 'yaleB35_P06A+020E-10', 'yaleB35_P06A+035E+15', 'yaleB35_P06A+035E+40', 'yaleB35_P06A+060E+20', 'yaleB35_P06A+070E+45', 'yaleB35_P06A-005E+10', 'yaleB35_P06A-005E-10', 'yaleB35_P06A-010E+00', 'yaleB35_P06A-010E-20', 'yaleB35_P06A-015E+20', 'yaleB35_P06A-020E+10', 'yaleB35_P06A-020E-10', 'yaleB35_P06A-025E+00', 'yaleB35_P06A-035E+15', 'yaleB35_P06A-035E+40', 'yaleB35_P06A-050E+00', 'yaleB35_P07A+000E+00', 'yaleB35_P07A+010E+00', 'yaleB35_P08A+000E+00', 'yaleB35_P08A+000E+20', 'yaleB35_P08A+000E+45', 'yaleB35_P08A+000E-20', 'yaleB35_P08A+005E+10', 'yaleB35_P08A+005E-10', 'yaleB35_P08A+010E+00', 'yaleB35_P08A+010E-20', 'yaleB35_P08A+015E+20', 'yaleB35_P08A+020E+10', 'yaleB35_P08A+020E-10', 'yaleB35_P08A+025E+00', 'yaleB35_P08A+035E+15', 'yaleB35_P08A+035E+40', 'yaleB35_P08A+060E+20', 'yaleB35_P08A-005E+10', 'yaleB35_P08A-005E-10', 'yaleB35_P08A-010E+00', 'yaleB35_P08A-010E-20', 'yaleB35_P08A-015E+20', 'yaleB35_P08A-020E+10', 'yaleB35_P08A-020E-10', 'yaleB35_P08A-025E+00', 'yaleB35_P08A-035E+15', 'yaleB35_P08A-035E-20', 'yaleB35_P08A-050E+00', 'yaleB36_P00A+010E+00', 'yaleB36_P06A+005E-10', 'yaleB36_P06A+010E+00', 'yaleB36_P06A+015E+20', 'yaleB38_P00A+000E+20', 'yaleB38_P00A+000E-20', 'yaleB38_P00A+005E+10', 'yaleB38_P00A+005E-10', 'yaleB38_P00A+010E+00', 'yaleB38_P00A+015E+20', 'yaleB38_P00A+020E+10', 'yaleB38_P00A-005E-10', 'yaleB38_P00A-010E+00', 'yaleB38_P00A-010E-20', 'yaleB38_P00A-015E+20', 'yaleB38_P00A-020E+10', 'yaleB38_P00A-020E-10', 'yaleB38_P00A-025E+00', 'yaleB38_P01A+000E+00', 'yaleB38_P01A+000E+20', 'yaleB38_P01A+000E-20', 'yaleB38_P01A+005E+10', 'yaleB38_P01A+005E-10', 'yaleB38_P01A+010E+00', 'yaleB38_P01A+015E+20', 'yaleB38_P01A+020E+10', 'yaleB38_P01A+035E+15', 'yaleB38_P01A-005E-10', 'yaleB38_P01A-010E+00', 'yaleB38_P01A-015E+20', 'yaleB38_P01A-020E+10', 'yaleB38_P01A-020E-10', 'yaleB38_P01A-025E+00', 'yaleB38_P01A-035E+15', 'yaleB38_P02A+000E+00', 'yaleB38_P02A+005E+10', 'yaleB38_P02A+010E+00', 'yaleB38_P02A+015E+20', 'yaleB38_P02A-010E+00', 'yaleB38_P02A-020E+10', 'yaleB38_P03A+000E+00', 'yaleB38_P03A+000E+20', 'yaleB38_P03A+000E-20', 'yaleB38_P03A+005E+10', 'yaleB38_P03A+005E-10', 'yaleB38_P03A+010E+00', 'yaleB38_P03A+010E-20', 'yaleB38_P03A+015E+20', 'yaleB38_P03A+020E+10', 'yaleB38_P03A+020E-10', 'yaleB38_P03A+035E+15', 'yaleB38_P03A-005E+10', 'yaleB38_P03A-005E-10', 'yaleB38_P03A-010E+00', 'yaleB38_P03A-010E-20', 'yaleB38_P03A-015E+20', 'yaleB38_P03A-020E+10', 'yaleB38_P03A-020E-10', 'yaleB38_P03A-025E+00', 'yaleB38_P03A-035E+15', 'yaleB38_P04A+000E+00', 'yaleB38_P04A+000E+20', 'yaleB38_P04A+000E-20', 'yaleB38_P04A+000E-35', 'yaleB38_P04A+005E+10', 'yaleB38_P04A+005E-10', 'yaleB38_P04A+010E+00', 'yaleB38_P04A+010E-20', 'yaleB38_P04A+015E+20', 'yaleB38_P04A+020E+10', 'yaleB38_P04A+020E-10', 'yaleB38_P04A+035E+15', 'yaleB38_P04A+035E-20', 'yaleB38_P04A-005E+10', 'yaleB38_P04A-005E-10', 'yaleB38_P04A-010E+00', 'yaleB38_P04A-010E-20', 'yaleB38_P04A-015E+20', 'yaleB38_P04A-020E+10', 'yaleB38_P04A-020E-10', 'yaleB38_P04A-025E+00', 'yaleB38_P04A-035E+15', 'yaleB38_P04A-035E-20', 'yaleB38_P05A+000E+00', 'yaleB38_P05A+000E+20', 'yaleB38_P05A+000E-20', 'yaleB38_P05A+005E+10', 'yaleB38_P05A+005E-10', 'yaleB38_P05A+010E+00', 'yaleB38_P05A+010E-20', 'yaleB38_P05A+015E+20', 'yaleB38_P05A+020E+10', 'yaleB38_P05A+020E-10', 'yaleB38_P05A+035E+15', 'yaleB38_P05A-005E+10', 'yaleB38_P05A-005E-10', 'yaleB38_P05A-010E+00', 'yaleB38_P05A-010E-20', 'yaleB38_P05A-015E+20', 'yaleB38_P05A-020E+10', 'yaleB38_P05A-020E-10', 'yaleB38_P05A-025E+00', 'yaleB38_P05A-035E+15', 'yaleB38_P05A-035E-20', 'yaleB38_P06A+000E+00', 'yaleB38_P06A+000E+20', 'yaleB38_P06A+000E-20', 'yaleB38_P06A+005E+10', 'yaleB38_P06A+005E-10', 'yaleB38_P06A+010E+00', 'yaleB38_P06A+010E-20', 'yaleB38_P06A+015E+20', 'yaleB38_P06A+020E+10', 'yaleB38_P06A+020E-10', 'yaleB38_P06A+035E+15', 'yaleB38_P06A-005E-10', 'yaleB38_P06A-010E+00', 'yaleB38_P06A-010E-20', 'yaleB38_P06A-015E+20', 'yaleB38_P06A-020E+10', 'yaleB38_P06A-020E-10', 'yaleB38_P06A-025E+00', 'yaleB38_P07A+000E+00', 'yaleB38_P07A+000E+20', 'yaleB38_P07A+000E-20', 'yaleB38_P07A+000E-35', 'yaleB38_P07A+005E+10', 'yaleB38_P07A+005E-10', 'yaleB38_P07A+010E+00', 'yaleB38_P07A+010E-20', 'yaleB38_P07A+015E+20', 'yaleB38_P07A+020E+10', 'yaleB38_P07A+020E-10', 'yaleB38_P07A+025E+00', 'yaleB38_P07A+035E+15', 'yaleB38_P07A+035E+40', 'yaleB38_P07A+035E-20', 'yaleB38_P07A+050E+00', 'yaleB38_P07A+060E+20', 'yaleB38_P07A-005E+10', 'yaleB38_P07A-005E-10', 'yaleB38_P07A-010E+00', 'yaleB38_P07A-010E-20', 'yaleB38_P07A-015E+20', 'yaleB38_P07A-020E+10', 'yaleB38_P07A-020E-10', 'yaleB38_P07A-025E+00', 'yaleB38_P07A-035E+15', 'yaleB38_P07A-035E-20', 'yaleB38_P07A-050E+00', 'yaleB38_P08A+000E+00', 'yaleB38_P08A+000E+20', 'yaleB38_P08A+000E-20', 'yaleB38_P08A+005E+10', 'yaleB38_P08A+005E-10', 'yaleB38_P08A+010E+00', 'yaleB38_P08A+010E-20', 'yaleB38_P08A+015E+20', 'yaleB38_P08A+020E+10', 'yaleB38_P08A+020E-10', 'yaleB38_P08A+035E+15', 'yaleB38_P08A+035E-20', 'yaleB38_P08A-005E+10', 'yaleB38_P08A-005E-10', 'yaleB38_P08A-010E+00', 'yaleB38_P08A-010E-20', 'yaleB38_P08A-015E+20', 'yaleB38_P08A-020E+10', 'yaleB38_P08A-020E-10', 'yaleB38_P08A-025E+00', 'yaleB38_P08A-035E-20', 'yaleB39_P00A+000E+20', 'yaleB39_P00A+000E+45', 'yaleB39_P00A+000E-20', 'yaleB39_P00A+000E-35', 'yaleB39_P00A+005E+10', 'yaleB39_P00A+005E-10', 'yaleB39_P00A+010E+00', 'yaleB39_P00A+010E-20', 'yaleB39_P00A+015E+20', 'yaleB39_P00A+020E+10', 'yaleB39_P00A+020E-10', 'yaleB39_P00A+020E-40', 'yaleB39_P00A+025E+00', 'yaleB39_P00A+035E+15', 'yaleB39_P00A+035E+40', 'yaleB39_P00A+035E+65', 'yaleB39_P00A+035E-20', 'yaleB39_P00A+050E+00', 'yaleB39_P00A+060E+20', 'yaleB39_P00A+070E+45', 'yaleB39_P00A+085E+20', 'yaleB39_P00A-005E+10', 'yaleB39_P00A-005E-10', 'yaleB39_P00A-010E+00', 'yaleB39_P00A-010E-20', 'yaleB39_P00A-015E+20', 'yaleB39_P00A-020E+10', 'yaleB39_P00A-020E-10', 'yaleB39_P00A-025E+00', 'yaleB39_P00A-035E+15', 'yaleB39_P00A-035E+40', 'yaleB39_P00A-035E-20', 'yaleB39_P00A-050E+00', 'yaleB39_P00A-060E+20', 'yaleB39_P00A-070E+45', 'yaleB39_P01A+000E+00', 'yaleB39_P01A+000E+20', 'yaleB39_P01A+000E+45', 'yaleB39_P01A+000E-20', 'yaleB39_P01A+005E+10', 'yaleB39_P01A+005E-10', 'yaleB39_P01A+010E+00', 'yaleB39_P01A+010E-20', 'yaleB39_P01A+015E+20', 'yaleB39_P01A+020E+10', 'yaleB39_P01A+020E-10', 'yaleB39_P01A+025E+00', 'yaleB39_P01A+035E+15', 'yaleB39_P01A+035E+40', 'yaleB39_P01A+035E+65', 'yaleB39_P01A+035E-20', 'yaleB39_P01A+050E+00', 'yaleB39_P01A+060E+20', 'yaleB39_P01A+070E+45', 'yaleB39_P01A-005E+10', 'yaleB39_P01A-005E-10', 'yaleB39_P01A-010E+00', 'yaleB39_P01A-010E-20', 'yaleB39_P01A-015E+20', 'yaleB39_P01A-020E+10', 'yaleB39_P01A-020E-10', 'yaleB39_P01A-025E+00', 'yaleB39_P01A-035E+15', 'yaleB39_P01A-035E+40', 'yaleB39_P01A-035E+65', 'yaleB39_P01A-035E-20', 'yaleB39_P01A-060E+20', 'yaleB39_P01A-070E+45', 'yaleB39_P02A+000E+00', 'yaleB39_P02A+000E+20', 'yaleB39_P02A+000E+45', 'yaleB39_P02A+000E-20', 'yaleB39_P02A+005E+10', 'yaleB39_P02A+005E-10', 'yaleB39_P02A+010E+00', 'yaleB39_P02A+010E-20', 'yaleB39_P02A+015E+20', 'yaleB39_P02A+020E+10', 'yaleB39_P02A+020E-10', 'yaleB39_P02A+025E+00', 'yaleB39_P02A+035E+15', 'yaleB39_P02A+035E+40', 'yaleB39_P02A+035E+65', 'yaleB39_P02A+035E-20', 'yaleB39_P02A+050E+00', 'yaleB39_P02A+060E+20', 'yaleB39_P02A+070E+45', 'yaleB39_P02A-005E+10', 'yaleB39_P02A-005E-10', 'yaleB39_P02A-010E+00', 'yaleB39_P02A-010E-20', 'yaleB39_P02A-015E+20', 'yaleB39_P02A-020E+10', 'yaleB39_P02A-020E-10', 'yaleB39_P02A-025E+00', 'yaleB39_P02A-035E+15', 'yaleB39_P02A-035E+40', 'yaleB39_P02A-035E+65', 'yaleB39_P02A-060E+20', 'yaleB39_P02A-070E+45', 'yaleB39_P03A+000E+00', 'yaleB39_P03A+000E+20', 'yaleB39_P03A+000E+45', 'yaleB39_P03A+000E-20', 'yaleB39_P03A+005E+10', 'yaleB39_P03A+005E-10', 'yaleB39_P03A+010E+00', 'yaleB39_P03A+010E-20', 'yaleB39_P03A+015E+20', 'yaleB39_P03A+020E+10', 'yaleB39_P03A+020E-10', 'yaleB39_P03A+020E-40', 'yaleB39_P03A+025E+00', 'yaleB39_P03A+035E+15', 'yaleB39_P03A+035E+40', 'yaleB39_P03A+035E+65', 'yaleB39_P03A+035E-20', 'yaleB39_P03A+050E+00', 'yaleB39_P03A+060E+20', 'yaleB39_P03A+060E-20', 'yaleB39_P03A+070E+00', 'yaleB39_P03A+070E+45', 'yaleB39_P03A-005E+10', 'yaleB39_P03A-005E-10', 'yaleB39_P03A-010E+00', 'yaleB39_P03A-010E-20', 'yaleB39_P03A-015E+20', 'yaleB39_P03A-020E+10', 'yaleB39_P03A-020E-10', 'yaleB39_P03A-025E+00', 'yaleB39_P03A-035E+15', 'yaleB39_P03A-035E+40', 'yaleB39_P03A-035E-20', 'yaleB39_P03A-050E+00', 'yaleB39_P03A-060E+20', 'yaleB39_P04A+000E+00', 'yaleB39_P04A+000E+20', 'yaleB39_P04A+000E+45', 'yaleB39_P04A+000E-20', 'yaleB39_P04A+000E-35', 'yaleB39_P04A+005E+10', 'yaleB39_P04A+005E-10', 'yaleB39_P04A+010E+00', 'yaleB39_P04A+010E-20', 'yaleB39_P04A+015E+20', 'yaleB39_P04A+020E+10', 'yaleB39_P04A+020E-10', 'yaleB39_P04A+025E+00', 'yaleB39_P04A+035E+15', 'yaleB39_P04A+035E+40', 'yaleB39_P04A+035E-20', 'yaleB39_P04A+050E+00', 'yaleB39_P04A+060E+20', 'yaleB39_P04A+060E-20', 'yaleB39_P04A-005E+10', 'yaleB39_P04A-005E-10', 'yaleB39_P04A-010E+00', 'yaleB39_P04A-010E-20', 'yaleB39_P04A-015E+20', 'yaleB39_P04A-020E+10', 'yaleB39_P04A-020E-10', 'yaleB39_P04A-020E-40', 'yaleB39_P04A-025E+00', 'yaleB39_P04A-035E+15', 'yaleB39_P04A-035E+40', 'yaleB39_P04A-035E-20', 'yaleB39_P04A-050E+00', 'yaleB39_P04A-060E+20', 'yaleB39_P05A+000E+00', 'yaleB39_P05A+000E+20', 'yaleB39_P05A+000E+45', 'yaleB39_P05A+000E-20', 'yaleB39_P05A+000E-35', 'yaleB39_P05A+005E+10', 'yaleB39_P05A+005E-10', 'yaleB39_P05A+010E+00', 'yaleB39_P05A+010E-20', 'yaleB39_P05A+015E+20', 'yaleB39_P05A+020E+10', 'yaleB39_P05A+020E-10', 'yaleB39_P05A+025E+00', 'yaleB39_P05A+035E+15', 'yaleB39_P05A+035E+40', 'yaleB39_P05A+035E-20', 'yaleB39_P05A+050E+00', 'yaleB39_P05A+060E+20', 'yaleB39_P05A-005E+10', 'yaleB39_P05A-005E-10', 'yaleB39_P05A-010E+00', 'yaleB39_P05A-010E-20', 'yaleB39_P05A-015E+20', 'yaleB39_P05A-020E+10', 'yaleB39_P05A-020E-10', 'yaleB39_P05A-020E-40', 'yaleB39_P05A-025E+00', 'yaleB39_P05A-035E+15', 'yaleB39_P05A-035E+40', 'yaleB39_P05A-035E-20', 'yaleB39_P06A+000E+00', 'yaleB39_P06A+000E+20', 'yaleB39_P06A+000E+45', 'yaleB39_P06A+000E-20', 'yaleB39_P06A+005E+10', 'yaleB39_P06A+005E-10', 'yaleB39_P06A+010E+00', 'yaleB39_P06A+010E-20', 'yaleB39_P06A+015E+20', 'yaleB39_P06A+020E+10', 'yaleB39_P06A+020E-10', 'yaleB39_P06A+025E+00', 'yaleB39_P06A+035E+15', 'yaleB39_P06A+035E+40', 'yaleB39_P06A+035E+65', 'yaleB39_P06A+050E+00', 'yaleB39_P06A+060E+20', 'yaleB39_P06A+060E-20', 'yaleB39_P06A+070E+00', 'yaleB39_P06A+070E+45', 'yaleB39_P06A-005E+10', 'yaleB39_P06A-005E-10', 'yaleB39_P06A-010E+00', 'yaleB39_P06A-010E-20', 'yaleB39_P06A-015E+20', 'yaleB39_P06A-020E+10', 'yaleB39_P06A-020E-10', 'yaleB39_P06A-025E+00', 'yaleB39_P06A-035E+15', 'yaleB39_P06A-035E+40', 'yaleB39_P06A-035E+65', 'yaleB39_P06A-050E+00', 'yaleB39_P06A-060E+20', 'yaleB39_P06A-070E+45', 'yaleB39_P07A+000E+00', 'yaleB39_P07A+000E+20', 'yaleB39_P07A+000E+45', 'yaleB39_P07A+000E-20', 'yaleB39_P07A+000E-35', 'yaleB39_P07A+005E+10', 'yaleB39_P07A+005E-10', 'yaleB39_P07A+010E+00', 'yaleB39_P07A+010E-20', 'yaleB39_P07A+015E+20', 'yaleB39_P07A+020E+10', 'yaleB39_P07A+020E-10', 'yaleB39_P07A+020E-40', 'yaleB39_P07A+025E+00', 'yaleB39_P07A+035E+15', 'yaleB39_P07A+035E+40', 'yaleB39_P07A+035E+65', 'yaleB39_P07A+035E-20', 'yaleB39_P07A+050E+00', 'yaleB39_P07A+060E+20', 'yaleB39_P07A+060E-20', 'yaleB39_P07A+070E+45', 'yaleB39_P07A+085E+20', 'yaleB39_P07A-005E+10', 'yaleB39_P07A-005E-10', 'yaleB39_P07A-010E+00', 'yaleB39_P07A-010E-20', 'yaleB39_P07A-015E+20', 'yaleB39_P07A-020E+10', 'yaleB39_P07A-020E-10', 'yaleB39_P07A-025E+00', 'yaleB39_P07A-035E+15', 'yaleB39_P07A-035E+40', 'yaleB39_P07A-035E-20', 'yaleB39_P07A-050E+00', 'yaleB39_P07A-060E+20', 'yaleB39_P08A+000E+00', 'yaleB39_P08A+000E+20', 'yaleB39_P08A+000E+45', 'yaleB39_P08A+000E-20', 'yaleB39_P08A+000E-35', 'yaleB39_P08A+005E+10', 'yaleB39_P08A+005E-10', 'yaleB39_P08A+010E+00', 'yaleB39_P08A+010E-20', 'yaleB39_P08A+015E+20', 'yaleB39_P08A+020E+10', 'yaleB39_P08A+020E-10', 'yaleB39_P08A+020E-40', 'yaleB39_P08A+025E+00', 'yaleB39_P08A+035E+15', 'yaleB39_P08A+035E+40', 'yaleB39_P08A+035E-20', 'yaleB39_P08A+050E+00', 'yaleB39_P08A+060E+20', 'yaleB39_P08A+060E-20', 'yaleB39_P08A+070E+00', 'yaleB39_P08A-005E+10', 'yaleB39_P08A-005E-10', 'yaleB39_P08A-010E+00', 'yaleB39_P08A-010E-20', 'yaleB39_P08A-015E+20', 'yaleB39_P08A-020E+10', 'yaleB39_P08A-020E-10', 'yaleB39_P08A-020E-40', 'yaleB39_P08A-025E+00', 'yaleB39_P08A-035E+15', 'yaleB39_P08A-035E+40', 'yaleB39_P08A-050E+00']
Lista VN [640]: ['yaleB11_P00A+000E+45', 'yaleB11_P00A+000E-20', 'yaleB11_P00A+000E-35', 'yaleB11_P00A+010E-20', 'yaleB11_P00A+020E-40', 'yaleB11_P00A+025E+00', 'yaleB11_P00A+035E+15', 'yaleB11_P00A+035E+40', 'yaleB11_P00A+035E+65', 'yaleB11_P00A+035E-20', 'yaleB11_P00A+050E+00', 'yaleB11_P00A+060E+20', 'yaleB11_P00A+060E-20', 'yaleB11_P00A+070E+00', 'yaleB11_P00A+070E+45', 'yaleB11_P00A+070E-35', 'yaleB11_P00A+085E+20', 'yaleB11_P00A+085E-20', 'yaleB11_P00A+110E+15', 'yaleB11_P00A+110E+40', 'yaleB11_P00A+110E+65', 'yaleB11_P00A+120E+00', 'yaleB11_P00A+130E+20', 'yaleB11_P00A-010E-20', 'yaleB11_P00A-015E+20', 'yaleB11_P00A-020E+10', 'yaleB11_P00A-020E-40', 'yaleB11_P00A-035E+40', 'yaleB11_P00A-035E+65', 'yaleB11_P00A-050E+00', 'yaleB11_P00A-060E+20', 'yaleB11_P00A-060E-20', 'yaleB11_P00A-070E+00', 'yaleB11_P00A-070E+45', 'yaleB11_P00A-070E-35', 'yaleB11_P00A-085E+20', 'yaleB11_P00A-085E-20', 'yaleB11_P00A-095E+00', 'yaleB11_P00A-110E+40', 'yaleB11_P01A+000E+00', 'yaleB11_P01A+000E+45', 'yaleB11_P01A+000E+90', 'yaleB11_P01A+000E-20', 'yaleB11_P01A+005E-10', 'yaleB11_P01A+010E-20', 'yaleB11_P01A+020E-10', 'yaleB11_P01A+020E-40', 'yaleB11_P01A+025E+00', 'yaleB11_P01A+035E+15', 'yaleB11_P01A+035E+40', 'yaleB11_P01A+035E+65', 'yaleB11_P01A+035E-20', 'yaleB11_P01A+050E+00', 'yaleB11_P01A+060E+20', 'yaleB11_P01A+060E-20', 'yaleB11_P01A+070E+00', 'yaleB11_P01A+070E+45', 'yaleB11_P01A+070E-35', 'yaleB11_P01A+085E+20', 'yaleB11_P01A+085E-20', 'yaleB11_P01A+110E+15', 'yaleB11_P01A+110E+40', 'yaleB11_P01A+110E+65', 'yaleB11_P01A+110E-20', 'yaleB11_P01A+120E+00', 'yaleB11_P01A+130E+20', 'yaleB11_P01A-005E+10', 'yaleB11_P01A-005E-10', 'yaleB11_P01A-010E+00', 'yaleB11_P01A-010E-20', 'yaleB11_P01A-020E+10', 'yaleB11_P01A-020E-10', 'yaleB11_P01A-020E-40', 'yaleB11_P01A-025E+00', 'yaleB11_P01A-035E+40', 'yaleB11_P01A-035E+65', 'yaleB11_P01A-035E-20', 'yaleB11_P01A-050E+00', 'yaleB11_P01A-060E+20', 'yaleB11_P01A-060E-20', 'yaleB11_P01A-070E+00', 'yaleB11_P01A-070E+45', 'yaleB11_P01A-070E-35', 'yaleB11_P01A-085E+20', 'yaleB11_P01A-085E-20', 'yaleB11_P01A-095E+00', 'yaleB11_P01A-110E+40', 'yaleB11_P01A-110E+65', 'yaleB11_P01A-120E+00', 'yaleB11_P01A-130E+20', 'yaleB11_P02A+000E+00', 'yaleB11_P02A+000E-20', 'yaleB11_P02A+000E-35', 'yaleB11_P02A+005E+10', 'yaleB11_P02A+005E-10', 'yaleB11_P02A+010E+00', 'yaleB11_P02A+010E-20', 'yaleB11_P02A+020E+10', 'yaleB11_P02A+020E-10', 'yaleB11_P02A+020E-40', 'yaleB11_P02A+025E+00', 'yaleB11_P02A+035E+15', 'yaleB11_P02A+035E+40', 'yaleB11_P02A+035E+65', 'yaleB11_P02A+035E-20', 'yaleB11_P02A+050E+00', 'yaleB11_P02A+060E+20', 'yaleB11_P02A+060E-20', 'yaleB11_P02A+070E+00', 'yaleB11_P02A+070E+45', 'yaleB11_P02A+070E-35', 'yaleB11_P02A+085E+20', 'yaleB11_P02A+085E-20', 'yaleB11_P02A+110E+15', 'yaleB11_P02A+110E+40', 'yaleB11_P02A+110E-20', 'yaleB11_P02A+120E+00', 'yaleB11_P02A+130E+20', 'yaleB11_P02A-005E-10', 'yaleB11_P02A-010E+00', 'yaleB11_P02A-010E-20', 'yaleB11_P02A-020E-10', 'yaleB11_P02A-020E-40', 'yaleB11_P02A-025E+00', 'yaleB11_P02A-035E+40', 'yaleB11_P02A-035E+65', 'yaleB11_P02A-035E-20', 'yaleB11_P02A-060E-20', 'yaleB11_P02A-070E+00', 'yaleB11_P02A-070E+45', 'yaleB11_P02A-070E-35', 'yaleB11_P02A-085E+20', 'yaleB11_P02A-085E-20', 'yaleB11_P02A-095E+00', 'yaleB11_P02A-110E+40', 'yaleB11_P03A+000E+20', 'yaleB11_P03A+000E+45', 'yaleB11_P03A+005E+10', 'yaleB11_P03A+010E+00', 'yaleB11_P03A+010E-20', 'yaleB11_P03A+015E+20', 'yaleB11_P03A+020E+10', 'yaleB11_P03A+020E-10', 'yaleB11_P03A+020E-40', 'yaleB11_P03A+025E+00', 'yaleB11_P03A+035E+15', 'yaleB11_P03A+035E+40', 'yaleB11_P03A+035E+65', 'yaleB11_P03A+035E-20', 'yaleB11_P03A+050E+00', 'yaleB11_P03A+060E+20', 'yaleB11_P03A+060E-20', 'yaleB11_P03A+070E+00', 'yaleB11_P03A+070E+45', 'yaleB11_P03A+070E-35', 'yaleB11_P03A+085E+20', 'yaleB11_P03A+085E-20', 'yaleB11_P03A+110E+15', 'yaleB11_P03A+110E+40', 'yaleB11_P03A-005E-10', 'yaleB11_P03A-010E+00', 'yaleB11_P03A-010E-20', 'yaleB11_P03A-015E+20', 'yaleB11_P03A-020E+10', 'yaleB11_P03A-020E-10', 'yaleB11_P03A-020E-40', 'yaleB11_P03A-025E+00', 'yaleB11_P03A-035E+15', 'yaleB11_P03A-035E+65', 'yaleB11_P03A-060E-20', 'yaleB11_P03A-070E+00', 'yaleB11_P03A-070E+45', 'yaleB11_P03A-085E+20', 'yaleB11_P03A-095E+00', 'yaleB11_P03A-110E+40', 'yaleB11_P04A+000E+20', 'yaleB11_P04A+000E+45', 'yaleB11_P04A+000E-35', 'yaleB11_P04A+020E+10', 'yaleB11_P04A+020E-10', 'yaleB11_P04A+035E+15', 'yaleB11_P04A+035E+40', 'yaleB11_P04A+035E+65', 'yaleB11_P04A+035E-20', 'yaleB11_P04A+050E+00', 'yaleB11_P04A+060E+20', 'yaleB11_P04A+060E-20', 'yaleB11_P04A+070E+00', 'yaleB11_P04A+070E+45', 'yaleB11_P04A+070E-35', 'yaleB11_P04A+085E+20', 'yaleB11_P04A+085E-20', 'yaleB11_P04A+110E+15', 'yaleB11_P04A+110E+40', 'yaleB11_P04A+110E-20', 'yaleB11_P04A+120E+00', 'yaleB11_P04A+130E+20', 'yaleB11_P04A-005E-10', 'yaleB11_P04A-010E+00', 'yaleB11_P04A-015E+20', 'yaleB11_P04A-020E+10', 'yaleB11_P04A-020E-10', 'yaleB11_P04A-020E-40', 'yaleB11_P04A-025E+00', 'yaleB11_P04A-035E+15', 'yaleB11_P04A-035E+65', 'yaleB11_P04A-060E+20', 'yaleB11_P04A-060E-20', 'yaleB11_P04A-070E+00', 'yaleB11_P04A-070E+45', 'yaleB11_P04A-070E-35', 'yaleB11_P04A-085E+20', 'yaleB11_P04A-085E-20', 'yaleB11_P04A-095E+00', 'yaleB11_P04A-110E+40', 'yaleB11_P04A-120E+00', 'yaleB11_P04A-130E+20', 'yaleB11_P05A+000E+20', 'yaleB11_P05A+000E-20', 'yaleB11_P05A+000E-35', 'yaleB11_P05A+005E+10', 'yaleB11_P05A+005E-10', 'yaleB11_P05A+010E+00', 'yaleB11_P05A+015E+20', 'yaleB11_P05A+020E+10', 'yaleB11_P05A+035E+15', 'yaleB11_P05A+035E+40', 'yaleB11_P05A+035E+65', 'yaleB11_P05A+035E-20', 'yaleB11_P05A+050E+00', 'yaleB11_P05A+060E+20', 'yaleB11_P05A+060E-20', 'yaleB11_P05A+070E+00', 'yaleB11_P05A+070E+45', 'yaleB11_P05A+070E-35', 'yaleB11_P05A+085E+20', 'yaleB11_P05A+085E-20', 'yaleB11_P05A+110E+15', 'yaleB11_P05A+110E+40', 'yaleB11_P05A+110E+65', 'yaleB11_P05A+110E-20', 'yaleB11_P05A+120E+00', 'yaleB11_P05A+130E+20', 'yaleB11_P05A-005E+10', 'yaleB11_P05A-005E-10', 'yaleB11_P05A-010E+00', 'yaleB11_P05A-015E+20', 'yaleB11_P05A-020E+10', 'yaleB11_P05A-025E+00', 'yaleB11_P05A-035E+15', 'yaleB11_P05A-035E+40', 'yaleB11_P05A-035E+65', 'yaleB11_P05A-050E+00', 'yaleB11_P05A-060E+20', 'yaleB11_P05A-060E-20', 'yaleB11_P05A-070E+00', 'yaleB11_P05A-070E+45', 'yaleB11_P05A-070E-35', 'yaleB11_P05A-085E+20', 'yaleB11_P05A-085E-20', 'yaleB11_P05A-095E+00', 'yaleB11_P05A-110E+15', 'yaleB11_P05A-110E+40', 'yaleB11_P05A-120E+00', 'yaleB11_P05A-130E+20', 'yaleB11_P06A+000E+00', 'yaleB11_P06A+000E+20', 'yaleB11_P06A+000E+45', 'yaleB11_P06A+000E+90', 'yaleB11_P06A+000E-20', 'yaleB11_P06A+000E-35', 'yaleB11_P06A+005E+10', 'yaleB11_P06A+005E-10', 'yaleB11_P06A+010E+00', 'yaleB11_P06A+010E-20', 'yaleB11_P06A+015E+20', 'yaleB11_P06A+020E+10', 'yaleB11_P06A+020E-10', 'yaleB11_P06A+020E-40', 'yaleB11_P06A+025E+00', 'yaleB11_P06A+035E+15', 'yaleB11_P06A+035E+40', 'yaleB11_P06A+035E+65', 'yaleB11_P06A+035E-20', 'yaleB11_P06A+050E+00', 'yaleB11_P06A+060E+20', 'yaleB11_P06A+060E-20', 'yaleB11_P06A+070E+00', 'yaleB11_P06A+070E+45', 'yaleB11_P06A+070E-35', 'yaleB11_P06A+085E+20', 'yaleB11_P06A+085E-20', 'yaleB11_P06A+110E+15', 'yaleB11_P06A+110E+40', 'yaleB11_P06A+110E+65', 'yaleB11_P06A+110E-20', 'yaleB11_P06A+120E+00', 'yaleB11_P06A+130E+20', 'yaleB11_P06A-005E+10', 'yaleB11_P06A-005E-10', 'yaleB11_P06A-010E+00', 'yaleB11_P06A-010E-20', 'yaleB11_P06A-015E+20', 'yaleB11_P06A-020E+10', 'yaleB11_P06A-020E-10', 'yaleB11_P06A-020E-40', 'yaleB11_P06A-025E+00', 'yaleB11_P06A-035E+15', 'yaleB11_P06A-035E+40', 'yaleB11_P06A-035E+65', 'yaleB11_P06A-035E-20', 'yaleB11_P06A-060E-20', 'yaleB11_P06A-070E+00', 'yaleB11_P06A-070E+45', 'yaleB11_P06A-070E-35', 'yaleB11_P06A-085E+20', 'yaleB11_P06A-085E-20', 'yaleB11_P06A-095E+00', 'yaleB11_P06A-110E+40', 'yaleB11_P06A-110E+65', 'yaleB11_P06A-120E+00', 'yaleB11_P06A-130E+20', 'yaleB11_P07A+000E+00', 'yaleB11_P07A+000E+20', 'yaleB11_P07A+000E+45', 'yaleB11_P07A+000E+90', 'yaleB11_P07A+000E-20', 'yaleB11_P07A+000E-35', 'yaleB11_P07A+005E+10', 'yaleB11_P07A+005E-10', 'yaleB11_P07A+010E+00', 'yaleB11_P07A+010E-20', 'yaleB11_P07A+015E+20', 'yaleB11_P07A+020E+10', 'yaleB11_P07A+020E-10', 'yaleB11_P07A+020E-40', 'yaleB11_P07A+025E+00', 'yaleB11_P07A+035E+15', 'yaleB11_P07A+035E+40', 'yaleB11_P07A+035E+65', 'yaleB11_P07A+035E-20', 'yaleB11_P07A+050E+00', 'yaleB11_P07A+060E+20', 'yaleB11_P07A+060E-20', 'yaleB11_P07A+070E+00', 'yaleB11_P07A+070E+45', 'yaleB11_P07A+070E-35', 'yaleB11_P07A+085E+20', 'yaleB11_P07A+085E-20', 'yaleB11_P07A+110E+15', 'yaleB11_P07A+110E+40', 'yaleB11_P07A+110E+65', 'yaleB11_P07A+110E-20', 'yaleB11_P07A+120E+00', 'yaleB11_P07A+130E+20', 'yaleB11_P07A-005E+10', 'yaleB11_P07A-005E-10', 'yaleB11_P07A-010E+00', 'yaleB11_P07A-010E-20', 'yaleB11_P07A-015E+20', 'yaleB11_P07A-020E+10', 'yaleB11_P07A-020E-10', 'yaleB11_P07A-020E-40', 'yaleB11_P07A-025E+00', 'yaleB11_P07A-035E+15', 'yaleB11_P07A-035E+40', 'yaleB11_P07A-035E+65', 'yaleB11_P07A-035E-20', 'yaleB11_P07A-050E+00', 'yaleB11_P07A-060E+20', 'yaleB11_P07A-060E-20', 'yaleB11_P07A-070E+00', 'yaleB11_P07A-070E+45', 'yaleB11_P07A-070E-35', 'yaleB11_P07A-085E+20', 'yaleB11_P07A-085E-20', 'yaleB11_P07A-095E+00', 'yaleB11_P07A-110E+40', 'yaleB11_P07A-120E+00', 'yaleB11_P07A-130E+20', 'yaleB11_P08A+000E+00', 'yaleB11_P08A+000E+20', 'yaleB11_P08A+000E+45', 'yaleB11_P08A+000E-35', 'yaleB11_P08A+005E-10', 'yaleB11_P08A+010E+00', 'yaleB11_P08A+010E-20', 'yaleB11_P08A+015E+20', 'yaleB11_P08A+020E+10', 'yaleB11_P08A+020E-10', 'yaleB11_P08A+020E-40', 'yaleB11_P08A+025E+00', 'yaleB11_P08A+035E+15', 'yaleB11_P08A+035E+40', 'yaleB11_P08A+035E+65', 'yaleB11_P08A+035E-20', 'yaleB11_P08A+050E+00', 'yaleB11_P08A+060E+20', 'yaleB11_P08A+060E-20', 'yaleB11_P08A+070E+00', 'yaleB11_P08A+070E+45', 'yaleB11_P08A+070E-35', 'yaleB11_P08A+085E+20', 'yaleB11_P08A+085E-20', 'yaleB11_P08A+110E+15', 'yaleB11_P08A+110E+40', 'yaleB11_P08A+110E-20', 'yaleB11_P08A+120E+00', 'yaleB11_P08A+130E+20', 'yaleB11_P08A-005E-10', 'yaleB11_P08A-010E+00', 'yaleB11_P08A-015E+20', 'yaleB11_P08A-020E+10', 'yaleB11_P08A-020E-10', 'yaleB11_P08A-025E+00', 'yaleB11_P08A-035E+15', 'yaleB11_P08A-035E+65', 'yaleB11_P08A-050E+00', 'yaleB11_P08A-060E+20', 'yaleB11_P08A-060E-20', 'yaleB11_P08A-070E+00', 'yaleB11_P08A-070E+45', 'yaleB11_P08A-070E-35', 'yaleB11_P08A-085E+20', 'yaleB11_P08A-085E-20', 'yaleB11_P08A-095E+00', 'yaleB11_P08A-110E+40', 'yaleB11_P08A-120E+00', 'yaleB19_P00A+005E+10', 'yaleB19_P00A+015E+20', 'yaleB19_P00A+020E+10', 'yaleB19_P00A+035E+15', 'yaleB19_P00A+035E+40', 'yaleB19_P00A+060E+20', 'yaleB19_P00A+070E+00', 'yaleB19_P00A-005E+10', 'yaleB19_P00A-035E+15', 'yaleB19_P00A-050E+00', 'yaleB19_P01A+000E+20', 'yaleB19_P01A+005E+10', 'yaleB19_P01A+015E+20', 'yaleB19_P01A+035E+40', 'yaleB19_P01A+070E+00', 'yaleB19_P01A-015E+20', 'yaleB19_P01A-035E+15', 'yaleB19_P02A+000E+00', 'yaleB19_P02A+000E+20', 'yaleB19_P02A+005E+10', 'yaleB19_P02A+015E+20', 'yaleB19_P02A+020E+10', 'yaleB19_P02A+035E+40', 'yaleB19_P02A+050E+00', 'yaleB19_P02A+060E+20', 'yaleB19_P02A+070E+00', 'yaleB19_P02A-015E+20', 'yaleB19_P02A-020E+10', 'yaleB19_P03A+000E+00', 'yaleB19_P03A+000E+20', 'yaleB19_P03A+005E+10', 'yaleB19_P03A+010E+00', 'yaleB19_P03A+015E+20', 'yaleB19_P03A+020E+10', 'yaleB19_P03A+020E-10', 'yaleB19_P03A+035E+15', 'yaleB19_P03A+035E-20', 'yaleB19_P03A+050E+00', 'yaleB19_P03A+060E+20', 'yaleB19_P03A+070E+00', 'yaleB19_P03A-010E+00', 'yaleB19_P03A-010E-20', 'yaleB19_P03A-015E+20', 'yaleB19_P03A-020E+10', 'yaleB19_P03A-020E-10', 'yaleB19_P03A-025E+00', 'yaleB19_P04A+000E+00', 'yaleB19_P04A+000E+20', 'yaleB19_P04A+005E+10', 'yaleB19_P04A+005E-10', 'yaleB19_P04A+010E+00', 'yaleB19_P04A+015E+20', 'yaleB19_P04A+020E+10', 'yaleB19_P04A+020E-10', 'yaleB19_P04A+035E+15', 'yaleB19_P04A-010E+00', 'yaleB19_P04A-015E+20', 'yaleB19_P04A-020E+10', 'yaleB19_P04A-020E-10', 'yaleB19_P05A+000E+00', 'yaleB19_P05A+000E+20', 'yaleB19_P05A+000E-20', 'yaleB19_P05A+005E+10', 'yaleB19_P05A+005E-10', 'yaleB19_P05A+010E+00', 'yaleB19_P05A+010E-20', 'yaleB19_P05A+015E+20', 'yaleB19_P05A+020E+10', 'yaleB19_P05A-005E-10', 'yaleB19_P05A-010E+00', 'yaleB19_P05A-015E+20', 'yaleB19_P05A-020E+10', 'yaleB19_P05A-020E-10', 'yaleB19_P05A-025E+00', 'yaleB19_P06A+000E+00', 'yaleB19_P06A+000E+20', 'yaleB19_P06A+000E-20', 'yaleB19_P06A+005E+10', 'yaleB19_P06A+020E+10', 'yaleB19_P06A+035E+15', 'yaleB19_P06A+035E+40', 'yaleB19_P06A+060E+20', 'yaleB19_P06A+070E+00', 'yaleB19_P06A-015E+20', 'yaleB19_P06A-020E+10', 'yaleB19_P07A+000E+00', 'yaleB19_P07A+000E+20', 'yaleB19_P07A+000E-20', 'yaleB19_P07A+005E+10', 'yaleB19_P07A+005E-10', 'yaleB19_P07A+010E+00', 'yaleB19_P07A+015E+20', 'yaleB19_P07A+020E+10', 'yaleB19_P07A+020E-10', 'yaleB19_P07A+035E+15', 'yaleB19_P07A+035E+40', 'yaleB19_P07A+035E-20', 'yaleB19_P07A+050E+00', 'yaleB19_P07A+060E+20', 'yaleB19_P07A+070E+00', 'yaleB19_P07A-005E-10', 'yaleB19_P07A-010E+00', 'yaleB19_P07A-010E-20', 'yaleB19_P07A-015E+20', 'yaleB19_P07A-020E+10', 'yaleB19_P07A-020E-10', 'yaleB19_P08A+000E+00', 'yaleB19_P08A+000E-20', 'yaleB19_P08A+005E+10', 'yaleB19_P08A+005E-10', 'yaleB19_P08A+010E+00', 'yaleB19_P08A+010E-20', 'yaleB19_P08A+015E+20', 'yaleB19_P08A+020E+10', 'yaleB19_P08A+020E-10', 'yaleB19_P08A+035E+15', 'yaleB19_P08A+070E+00', 'yaleB19_P08A-005E-10', 'yaleB19_P08A-010E+00', 'yaleB25_P00A+000E+20', 'yaleB25_P00A+000E-20', 'yaleB25_P00A+005E+10', 'yaleB25_P00A+005E-10', 'yaleB25_P00A+010E+00', 'yaleB25_P00A+010E-20', 'yaleB25_P00A+015E+20', 'yaleB25_P00A+020E+10', 'yaleB25_P00A-005E-10', 'yaleB25_P00A-010E+00', 'yaleB25_P00A-010E-20', 'yaleB25_P00A-015E+20', 'yaleB25_P00A-020E+10', 'yaleB25_P00A-020E-10', 'yaleB25_P00A-025E+00', 'yaleB25_P01A+000E+00', 'yaleB25_P01A+000E+20', 'yaleB25_P01A+000E-20', 'yaleB25_P01A+005E+10', 'yaleB25_P01A+005E-10', 'yaleB25_P01A+010E+00', 'yaleB25_P01A+010E-20', 'yaleB25_P01A+015E+20', 'yaleB25_P01A+020E+10', 'yaleB25_P01A+020E-10', 'yaleB25_P01A+035E+15', 'yaleB25_P01A-005E+10', 'yaleB25_P01A-005E-10', 'yaleB25_P01A-010E+00', 'yaleB25_P01A-010E-20', 'yaleB25_P01A-015E+20', 'yaleB25_P01A-020E+10', 'yaleB25_P01A-020E-10', 'yaleB25_P01A-025E+00', 'yaleB25_P01A-035E+15', 'yaleB25_P01A-035E-20', 'yaleB25_P02A+000E+00', 'yaleB25_P02A+000E+20', 'yaleB25_P02A+000E-20', 'yaleB25_P02A+005E-10', 'yaleB25_P02A+010E+00', 'yaleB25_P02A+010E-20', 'yaleB25_P02A+020E+10', 'yaleB25_P02A+020E-10', 'yaleB25_P02A+035E+15', 'yaleB25_P02A-005E-10', 'yaleB25_P02A-010E+00', 'yaleB25_P02A-010E-20', 'yaleB25_P02A-020E+10', 'yaleB25_P02A-020E-10', 'yaleB25_P02A-025E+00', 'yaleB25_P03A+000E+00', 'yaleB25_P03A+000E-20', 'yaleB25_P03A+005E+10', 'yaleB25_P03A+005E-10', 'yaleB25_P03A+010E+00', 'yaleB25_P03A-005E-10', 'yaleB25_P03A-010E+00', 'yaleB25_P03A-020E+10', 'yaleB25_P03A-020E-10', 'yaleB25_P04A+000E+00', 'yaleB25_P04A+010E+00', 'yaleB25_P04A-005E-10', 'yaleB25_P05A+000E+00', 'yaleB25_P05A+000E-20', 'yaleB25_P05A+005E+10', 'yaleB25_P05A+005E-10', 'yaleB25_P05A+010E+00', 'yaleB25_P05A+010E-20', 'yaleB25_P05A-005E-10', 'yaleB25_P05A-010E+00', 'yaleB25_P05A-020E-10', 'yaleB25_P06A+000E+00', 'yaleB25_P06A+000E+20', 'yaleB25_P06A+000E-20', 'yaleB25_P06A+005E+10', 'yaleB25_P06A+005E-10', 'yaleB25_P06A+010E+00', 'yaleB25_P06A+015E+20', 'yaleB25_P06A+020E+10', 'yaleB25_P06A-005E-10', 'yaleB25_P06A-010E+00', 'yaleB25_P06A-015E+20', 'yaleB25_P06A-020E+10', 'yaleB25_P06A-020E-10', 'yaleB25_P06A-025E+00', 'yaleB25_P07A+000E-20', 'yaleB25_P07A+005E+10', 'yaleB25_P07A+005E-10', 'yaleB25_P07A+010E+00', 'yaleB25_P07A-005E-10', 'yaleB25_P07A-010E+00', 'yaleB25_P08A+010E+00']
Lista FP [143]: ['yaleB11_P00A+000E+20', 'yaleB11_P00A+005E+10', 'yaleB11_P00A+005E-10', 'yaleB11_P00A+010E+00', 'yaleB11_P00A+015E+20', 'yaleB11_P00A+020E+10', 'yaleB11_P00A+020E-10', 'yaleB11_P00A-005E+10', 'yaleB11_P00A-005E-10', 'yaleB11_P00A-010E+00', 'yaleB11_P00A-020E-10', 'yaleB11_P00A-025E+00', 'yaleB11_P00A-035E+15', 'yaleB11_P00A-035E-20', 'yaleB11_P01A+000E+20', 'yaleB11_P01A+000E-35', 'yaleB11_P01A+005E+10', 'yaleB11_P01A+010E+00', 'yaleB11_P01A+015E+20', 'yaleB11_P01A+020E+10', 'yaleB11_P01A-015E+20', 'yaleB11_P01A-035E+15', 'yaleB11_P02A+000E+20', 'yaleB11_P02A+000E+45', 'yaleB11_P02A+015E+20', 'yaleB11_P02A-005E+10', 'yaleB11_P02A-015E+20', 'yaleB11_P02A-020E+10', 'yaleB11_P02A-035E+15', 'yaleB11_P02A-050E+00', 'yaleB11_P02A-060E+20', 'yaleB11_P03A+000E+00', 'yaleB11_P03A+000E-20', 'yaleB11_P03A+000E-35', 'yaleB11_P03A+005E-10', 'yaleB11_P03A-035E+40', 'yaleB11_P03A-035E-20', 'yaleB11_P03A-050E+00', 'yaleB11_P03A-060E+20', 'yaleB11_P04A+000E+00', 'yaleB11_P04A+000E-20', 'yaleB11_P04A+005E+10', 'yaleB11_P04A+005E-10', 'yaleB11_P04A+010E+00', 'yaleB11_P04A+010E-20', 'yaleB11_P04A+015E+20', 'yaleB11_P04A+020E-40', 'yaleB11_P04A+025E+00', 'yaleB11_P04A-005E+10', 'yaleB11_P04A-010E-20', 'yaleB11_P04A-035E+40', 'yaleB11_P04A-035E-20', 'yaleB11_P04A-050E+00', 'yaleB11_P05A+000E+00', 'yaleB11_P05A+000E+45', 'yaleB11_P05A+010E-20', 'yaleB11_P05A+020E-10', 'yaleB11_P05A+020E-40', 'yaleB11_P05A+025E+00', 'yaleB11_P05A-010E-20', 'yaleB11_P05A-020E-10', 'yaleB11_P05A-020E-40', 'yaleB11_P05A-035E-20', 'yaleB11_P06A-050E+00', 'yaleB11_P06A-060E+20', 'yaleB11_P08A+000E-20', 'yaleB11_P08A+005E+10', 'yaleB11_P08A-005E+10', 'yaleB11_P08A-010E-20', 'yaleB11_P08A-020E-40', 'yaleB11_P08A-035E+40', 'yaleB11_P08A-035E-20', 'yaleB13_P00A+070E-35', 'yaleB19_P00A+000E+20', 'yaleB19_P00A+000E-20', 'yaleB19_P00A+005E-10', 'yaleB19_P00A+010E+00', 'yaleB19_P00A+010E-20', 'yaleB19_P00A+020E-10', 'yaleB19_P00A-005E-10', 'yaleB19_P00A-010E+00', 'yaleB19_P00A-010E-20', 'yaleB19_P00A-015E+20', 'yaleB19_P00A-020E+10', 'yaleB19_P00A-020E-10', 'yaleB19_P00A-025E+00', 'yaleB19_P00A-035E-20', 'yaleB19_P01A+000E+00', 'yaleB19_P01A+000E-20', 'yaleB19_P01A+005E-10', 'yaleB19_P01A+010E+00', 'yaleB19_P01A+010E-20', 'yaleB19_P01A+020E+10', 'yaleB19_P01A+020E-10', 'yaleB19_P01A+035E+15', 'yaleB19_P01A+060E+20', 'yaleB19_P01A-005E-10', 'yaleB19_P01A-010E+00', 'yaleB19_P01A-020E+10', 'yaleB19_P01A-020E-10', 'yaleB19_P01A-025E+00', 'yaleB19_P02A+000E-20', 'yaleB19_P02A+005E-10', 'yaleB19_P02A+010E+00', 'yaleB19_P02A+010E-20', 'yaleB19_P02A+020E-10', 'yaleB19_P02A+035E+15', 'yaleB19_P02A-005E-10', 'yaleB19_P02A-010E+00', 'yaleB19_P02A-020E-10', 'yaleB19_P02A-025E+00', 'yaleB19_P03A+000E-20', 'yaleB19_P03A+005E-10', 'yaleB19_P03A+010E-20', 'yaleB19_P03A+035E+40', 'yaleB19_P03A-005E-10', 'yaleB19_P04A+000E-20', 'yaleB19_P04A+010E-20', 'yaleB19_P04A-005E-10', 'yaleB19_P06A+005E-10', 'yaleB19_P06A+010E+00', 'yaleB19_P06A+010E-20', 'yaleB19_P06A+015E+20', 'yaleB19_P06A+020E-10', 'yaleB19_P06A+050E+00', 'yaleB19_P06A-005E-10', 'yaleB19_P06A-010E+00', 'yaleB19_P06A-010E-20', 'yaleB19_P06A-020E-10', 'yaleB19_P06A-025E+00', 'yaleB19_P07A+010E-20', 'yaleB25_P00A+020E-10', 'yaleB25_P02A+005E+10', 'yaleB25_P02A+015E+20', 'yaleB25_P02A-015E+20', 'yaleB25_P03A+015E+20', 'yaleB25_P07A+000E+00', 'yaleB25_P07A+015E+20', 'yaleB25_P07A-020E+10', 'yaleB30_P05A-035E+40', 'yaleB39_P03A+085E+20', 'yaleB39_P06A+000E-35', 'yaleB39_P06A+085E+20']
Lista FN [485]: ['yaleB12_P00A+070E+45', 'yaleB12_P00A+070E-35', 'yaleB12_P00A+085E+20', 'yaleB12_P00A+085E-20', 'yaleB12_P00A+110E+15', 'yaleB12_P00A+110E+40', 'yaleB12_P00A+110E-20', 'yaleB12_P00A+120E+00', 'yaleB12_P00A+130E+20', 'yaleB12_P00A-035E+65', 'yaleB12_P00A-050E+00', 'yaleB12_P00A-060E-20', 'yaleB12_P00A-070E+00', 'yaleB12_P00A-070E+45', 'yaleB12_P00A-070E-35', 'yaleB12_P00A-085E+20', 'yaleB12_P00A-085E-20', 'yaleB12_P00A-095E+00', 'yaleB12_P00A-110E+40', 'yaleB12_P00A-120E+00', 'yaleB12_P00A-130E+20', 'yaleB12_P01A+000E+90', 'yaleB12_P01A+060E-20', 'yaleB12_P01A+070E+00', 'yaleB12_P01A+070E+45', 'yaleB12_P01A+070E-35', 'yaleB12_P01A+085E+20', 'yaleB12_P01A+085E-20', 'yaleB12_P01A+110E+15', 'yaleB12_P01A+110E+40', 'yaleB12_P01A+110E+65', 'yaleB12_P01A+110E-20', 'yaleB12_P01A+120E+00', 'yaleB12_P01A+130E+20', 'yaleB12_P01A-050E+00', 'yaleB12_P01A-060E-20', 'yaleB12_P01A-070E+00', 'yaleB12_P01A-070E+45', 'yaleB12_P01A-070E-35', 'yaleB12_P01A-085E+20', 'yaleB12_P01A-085E-20', 'yaleB12_P01A-095E+00', 'yaleB12_P01A-110E+40', 'yaleB12_P01A-110E+65', 'yaleB12_P01A-120E+00', 'yaleB12_P01A-130E+20', 'yaleB12_P02A+000E+90', 'yaleB12_P02A+070E+00', 'yaleB12_P02A+070E+45', 'yaleB12_P02A+070E-35', 'yaleB12_P02A+085E+20', 'yaleB12_P02A+085E-20', 'yaleB12_P02A+110E+15', 'yaleB12_P02A+110E+40', 'yaleB12_P02A+110E+65', 'yaleB12_P02A+110E-20', 'yaleB12_P02A+120E+00', 'yaleB12_P02A+130E+20', 'yaleB12_P02A-060E+20', 'yaleB12_P02A-060E-20', 'yaleB12_P02A-070E+00', 'yaleB12_P02A-070E+45', 'yaleB12_P02A-070E-35', 'yaleB12_P02A-085E+20', 'yaleB12_P02A-085E-20', 'yaleB12_P02A-095E+00', 'yaleB12_P02A-110E+40', 'yaleB12_P02A-110E+65', 'yaleB12_P02A-120E+00', 'yaleB12_P02A-130E+20', 'yaleB12_P03A+060E-20', 'yaleB12_P03A+070E+00', 'yaleB12_P03A-035E-20', 'yaleB12_P04A+070E-35', 'yaleB12_P04A+085E+20', 'yaleB12_P04A+085E-20', 'yaleB12_P04A+110E+15', 'yaleB12_P04A+110E+40', 'yaleB12_P04A+110E-20', 'yaleB12_P04A+120E+00', 'yaleB12_P04A+130E+20', 'yaleB12_P04A-060E-20', 'yaleB12_P04A-070E+00', 'yaleB12_P04A-070E+45', 'yaleB12_P04A-070E-35', 'yaleB12_P04A-085E+20', 'yaleB12_P04A-085E-20', 'yaleB12_P04A-095E+00', 'yaleB12_P04A-110E+40', 'yaleB12_P04A-120E+00', 'yaleB12_P04A-130E+20', 'yaleB12_P05A+060E-20', 'yaleB12_P05A+070E+45', 'yaleB12_P05A+070E-35', 'yaleB12_P05A+085E+20', 'yaleB12_P05A+085E-20', 'yaleB12_P05A+110E+15', 'yaleB12_P05A+120E+00', 'yaleB12_P05A+130E+20', 'yaleB12_P05A-035E+65', 'yaleB12_P05A-050E+00', 'yaleB12_P05A-060E-20', 'yaleB12_P05A-070E+00', 'yaleB12_P05A-070E+45', 'yaleB12_P05A-070E-35', 'yaleB12_P05A-085E+20', 'yaleB12_P05A-085E-20', 'yaleB12_P05A-095E+00', 'yaleB12_P05A-120E+00', 'yaleB12_P06A+000E+90', 'yaleB12_P06A+020E-40', 'yaleB12_P06A+060E-20', 'yaleB12_P06A+070E+00', 'yaleB12_P06A+070E-35', 'yaleB12_P06A+085E+20', 'yaleB12_P06A+085E-20', 'yaleB12_P06A+110E+15', 'yaleB12_P06A+110E+40', 'yaleB12_P06A+110E+65', 'yaleB12_P06A+110E-20', 'yaleB12_P06A+120E+00', 'yaleB12_P06A+130E+20', 'yaleB12_P06A-020E-40', 'yaleB12_P06A-060E-20', 'yaleB12_P06A-070E+00', 'yaleB12_P06A-070E-35', 'yaleB12_P06A-085E+20', 'yaleB12_P06A-085E-20', 'yaleB12_P06A-095E+00', 'yaleB12_P06A-110E+40', 'yaleB12_P06A-110E+65', 'yaleB12_P06A-120E+00', 'yaleB12_P06A-130E+20', 'yaleB12_P07A+085E-20', 'yaleB12_P08A+000E+90', 'yaleB12_P08A+035E+65', 'yaleB12_P08A+050E-40', 'yaleB12_P08A+070E+00', 'yaleB12_P08A+070E-35', 'yaleB12_P08A+085E+20', 'yaleB12_P08A+085E-20', 'yaleB12_P08A+095E+00', 'yaleB12_P08A+110E+15', 'yaleB12_P08A+110E+40', 'yaleB12_P08A+110E+65', 'yaleB12_P08A+110E-20', 'yaleB12_P08A+120E+00', 'yaleB12_P08A+130E+20', 'yaleB12_P08A-035E+65', 'yaleB12_P08A-050E-40', 'yaleB12_P08A-060E+20', 'yaleB12_P08A-060E-20', 'yaleB12_P08A-070E+00', 'yaleB12_P08A-070E+45', 'yaleB12_P08A-070E-35', 'yaleB12_P08A-085E+20', 'yaleB12_P08A-085E-20', 'yaleB12_P08A-095E+00', 'yaleB12_P08A-110E+15', 'yaleB12_P08A-110E+40', 'yaleB12_P08A-110E+65', 'yaleB12_P08A-110E-20', 'yaleB12_P08A-120E+00', 'yaleB12_P08A-130E+20', 'yaleB13_P00A+000E+90', 'yaleB13_P00A+050E-40', 'yaleB13_P00A+060E-20', 'yaleB13_P00A+070E+00', 'yaleB13_P00A+095E+00', 'yaleB13_P00A+110E+15', 'yaleB13_P00A+110E+40', 'yaleB13_P00A+110E+65', 'yaleB13_P00A+130E+20', 'yaleB13_P00A-050E-40', 'yaleB13_P00A-060E-20', 'yaleB13_P00A-070E+00', 'yaleB13_P00A-070E-35', 'yaleB13_P00A-085E+20', 'yaleB13_P00A-085E-20', 'yaleB13_P00A-095E+00', 'yaleB13_P00A-110E+15', 'yaleB13_P00A-110E+40', 'yaleB13_P00A-110E+65', 'yaleB13_P00A-110E-20', 'yaleB13_P00A-120E+00', 'yaleB13_P00A-130E+20', 'yaleB13_P01A+000E+90', 'yaleB13_P01A+000E-35', 'yaleB13_P01A+020E-40', 'yaleB13_P01A+035E-20', 'yaleB13_P01A+050E-40', 'yaleB13_P01A+070E+00', 'yaleB13_P01A+070E-35', 'yaleB13_P01A+085E+20', 'yaleB13_P01A+085E-20', 'yaleB13_P01A+095E+00', 'yaleB13_P01A+110E+15', 'yaleB13_P01A+110E+40', 'yaleB13_P01A+110E+65', 'yaleB13_P01A+110E-20', 'yaleB13_P01A+120E+00', 'yaleB13_P01A+130E+20', 'yaleB13_P01A-020E-40', 'yaleB13_P01A-035E-20', 'yaleB13_P01A-050E+00', 'yaleB13_P01A-050E-40', 'yaleB13_P01A-060E+20', 'yaleB13_P01A-060E-20', 'yaleB13_P01A-070E+00', 'yaleB13_P01A-070E-35', 'yaleB13_P01A-085E+20', 'yaleB13_P01A-085E-20', 'yaleB13_P01A-095E+00', 'yaleB13_P01A-110E+15', 'yaleB13_P01A-110E+40', 'yaleB13_P01A-110E+65', 'yaleB13_P01A-110E-20', 'yaleB13_P01A-120E+00', 'yaleB13_P01A-130E+20', 'yaleB13_P02A+020E-40', 'yaleB13_P02A+050E-40', 'yaleB13_P02A+060E-20', 'yaleB13_P02A+070E+00', 'yaleB13_P02A+070E-35', 'yaleB13_P02A+085E+20', 'yaleB13_P02A+085E-20', 'yaleB13_P02A+095E+00', 'yaleB13_P02A+110E+15', 'yaleB13_P02A+110E+40', 'yaleB13_P02A+110E+65', 'yaleB13_P02A+120E+00', 'yaleB13_P02A+130E+20', 'yaleB13_P02A-050E+00', 'yaleB13_P02A-050E-40', 'yaleB13_P02A-060E-20', 'yaleB13_P02A-070E+00', 'yaleB13_P02A-070E-35', 'yaleB13_P02A-085E+20', 'yaleB13_P02A-085E-20', 'yaleB13_P02A-095E+00', 'yaleB13_P02A-110E+15', 'yaleB13_P02A-110E+40', 'yaleB13_P02A-110E+65', 'yaleB13_P02A-110E-20', 'yaleB13_P02A-120E+00', 'yaleB13_P02A-130E+20', 'yaleB13_P03A+000E+90', 'yaleB13_P03A+050E-40', 'yaleB13_P03A+070E+00', 'yaleB13_P03A+070E+45', 'yaleB13_P03A+085E+20', 'yaleB13_P03A+085E-20', 'yaleB13_P03A+095E+00', 'yaleB13_P03A+110E+15', 'yaleB13_P03A+110E+40', 'yaleB13_P03A+110E+65', 'yaleB13_P03A+110E-20', 'yaleB13_P03A+120E+00', 'yaleB13_P03A+130E+20', 'yaleB13_P03A-050E-40', 'yaleB13_P03A-060E-20', 'yaleB13_P03A-070E+00', 'yaleB13_P03A-070E-35', 'yaleB13_P03A-085E+20', 'yaleB13_P03A-085E-20', 'yaleB13_P03A-095E+00', 'yaleB13_P03A-110E+15', 'yaleB13_P03A-110E+40', 'yaleB13_P03A-110E+65', 'yaleB13_P03A-110E-20', 'yaleB13_P03A-120E+00', 'yaleB13_P03A-130E+20', 'yaleB13_P04A+000E+90', 'yaleB13_P04A+035E+65', 'yaleB13_P04A+050E-40', 'yaleB13_P04A+060E-20', 'yaleB13_P04A+070E+00', 'yaleB13_P04A+070E+45', 'yaleB13_P04A+085E+20', 'yaleB13_P04A+095E+00', 'yaleB13_P04A+110E+15', 'yaleB13_P04A+110E+40', 'yaleB13_P04A+110E+65', 'yaleB13_P04A-035E+65', 'yaleB13_P04A-050E-40', 'yaleB13_P04A-060E-20', 'yaleB13_P04A-070E+00', 'yaleB13_P04A-070E-35', 'yaleB13_P04A-085E+20', 'yaleB13_P04A-085E-20', 'yaleB13_P04A-095E+00', 'yaleB13_P04A-110E+15', 'yaleB13_P04A-110E+40', 'yaleB13_P04A-110E+65', 'yaleB13_P04A-110E-20', 'yaleB13_P04A-120E+00', 'yaleB13_P04A-130E+20', 'yaleB13_P05A+000E+90', 'yaleB13_P05A+035E+65', 'yaleB13_P05A+050E-40', 'yaleB13_P05A+060E-20', 'yaleB13_P05A+070E+00', 'yaleB13_P05A+070E-35', 'yaleB13_P05A+085E+20', 'yaleB13_P05A+085E-20', 'yaleB13_P05A+095E+00', 'yaleB13_P05A+110E+15', 'yaleB13_P05A+110E+40', 'yaleB13_P05A+110E-20', 'yaleB13_P05A+120E+00', 'yaleB13_P05A-035E+65', 'yaleB13_P05A-050E-40', 'yaleB13_P05A-060E-20', 'yaleB13_P05A-070E+00', 'yaleB13_P05A-070E+45', 'yaleB13_P05A-070E-35', 'yaleB13_P05A-085E+20', 'yaleB13_P05A-085E-20', 'yaleB13_P05A-095E+00', 'yaleB13_P05A-110E+15', 'yaleB13_P05A-110E+40', 'yaleB13_P05A-110E+65', 'yaleB13_P05A-110E-20', 'yaleB13_P05A-120E+00', 'yaleB13_P06A+070E+00', 'yaleB13_P06A+070E-35', 'yaleB13_P06A+085E+20', 'yaleB13_P06A+085E-20', 'yaleB13_P06A+110E+15', 'yaleB13_P06A+110E+40', 'yaleB13_P06A+110E+65', 'yaleB13_P06A+110E-20', 'yaleB13_P06A+120E+00', 'yaleB13_P06A+130E+20', 'yaleB13_P06A-020E-40', 'yaleB13_P06A-070E+00', 'yaleB13_P06A-070E-35', 'yaleB13_P06A-085E+20', 'yaleB13_P06A-085E-20', 'yaleB13_P06A-095E+00', 'yaleB13_P06A-110E+40', 'yaleB13_P06A-110E+65', 'yaleB13_P06A-120E+00', 'yaleB13_P06A-130E+20', 'yaleB13_P07A+000E+90', 'yaleB13_P07A+035E+65', 'yaleB13_P07A+060E+20', 'yaleB13_P07A+070E+00', 'yaleB13_P07A+070E+45', 'yaleB13_P07A+085E+20', 'yaleB13_P07A+085E-20', 'yaleB13_P07A+110E+15', 'yaleB13_P07A+110E+40', 'yaleB13_P07A+110E+65', 'yaleB13_P07A+120E+00', 'yaleB13_P07A+130E+20', 'yaleB13_P07A-035E+65', 'yaleB13_P07A-060E-20', 'yaleB13_P07A-070E+00', 'yaleB13_P07A-070E-35', 'yaleB13_P07A-085E+20', 'yaleB13_P07A-085E-20', 'yaleB13_P07A-095E+00', 'yaleB13_P07A-110E+40', 'yaleB13_P07A-110E+65', 'yaleB13_P07A-120E+00', 'yaleB13_P07A-130E+20', 'yaleB13_P08A+000E+90', 'yaleB13_P08A+035E+65', 'yaleB13_P08A+060E+20', 'yaleB13_P08A+060E-20', 'yaleB13_P08A+070E+00', 'yaleB13_P08A+070E+45', 'yaleB13_P08A+070E-35', 'yaleB13_P08A+085E+20', 'yaleB13_P08A+085E-20', 'yaleB13_P08A+110E+15', 'yaleB13_P08A+110E+40', 'yaleB13_P08A+110E+65', 'yaleB13_P08A+110E-20', 'yaleB13_P08A+120E+00', 'yaleB13_P08A+130E+20', 'yaleB13_P08A-035E+65', 'yaleB13_P08A-060E-20', 'yaleB13_P08A-070E+00', 'yaleB13_P08A-070E+45', 'yaleB13_P08A-070E-35', 'yaleB13_P08A-085E+20', 'yaleB13_P08A-085E-20', 'yaleB13_P08A-095E+00', 'yaleB13_P08A-110E+40', 'yaleB13_P08A-110E+65', 'yaleB13_P08A-120E+00', 'yaleB13_P08A-130E+20', 'yaleB18_P03A+070E+00', 'yaleB18_P06A+070E+00', 'yaleB23_P00A+070E+00', 'yaleB23_P01A+070E+00', 'yaleB23_P03A+070E+00', 'yaleB23_P04A+070E+00', 'yaleB23_P06A+070E+00', 'yaleB23_P06A+085E+20', 'yaleB23_P07A+060E-20', 'yaleB23_P07A+070E+00', 'yaleB23_P07A+085E+20', 'yaleB23_P08A+060E-20', 'yaleB23_P08A+070E+00', 'yaleB24_P02A+070E+00', 'yaleB24_P03A+070E+00', 'yaleB26_P02A+070E+00', 'yaleB26_P07A+070E+00', 'yaleB26_P08A+070E+00', 'yaleB27_P02A+070E+00', 'yaleB27_P06A+070E+00', 'yaleB29_P00A-050E+00', 'yaleB29_P01A+070E+00', 'yaleB29_P01A-035E-20', 'yaleB29_P01A-060E+20', 'yaleB29_P02A+070E+00', 'yaleB29_P03A+070E+00', 'yaleB29_P06A+070E+00', 'yaleB30_P00A+070E+00', 'yaleB30_P04A+070E+00', 'yaleB30_P04A-050E+00', 'yaleB30_P05A+050E+00', 'yaleB30_P05A+060E+20', 'yaleB30_P05A+070E+00', 'yaleB30_P05A-035E-20', 'yaleB30_P05A-050E+00', 'yaleB30_P08A-035E-20', 'yaleB33_P01A+070E+00', 'yaleB33_P02A+070E+00', 'yaleB38_P04A-050E+00', 'yaleB38_P05A-050E+00', 'yaleB39_P00A+060E-20', 'yaleB39_P00A+070E+00', 'yaleB39_P00A+110E+65', 'yaleB39_P00A-020E-40', 'yaleB39_P00A-035E+65', 'yaleB39_P00A-050E-40', 'yaleB39_P00A-060E-20', 'yaleB39_P00A-070E+00', 'yaleB39_P00A-085E+20', 'yaleB39_P01A+000E+90', 'yaleB39_P01A+000E-35', 'yaleB39_P01A+020E-40', 'yaleB39_P01A+060E-20', 'yaleB39_P01A+070E+00', 'yaleB39_P01A+085E+20', 'yaleB39_P01A+110E+40', 'yaleB39_P01A+110E+65', 'yaleB39_P01A-020E-40', 'yaleB39_P01A-050E+00', 'yaleB39_P01A-060E-20', 'yaleB39_P01A-070E+00', 'yaleB39_P01A-085E+20', 'yaleB39_P02A+000E+90', 'yaleB39_P02A+000E-35', 'yaleB39_P02A+020E-40', 'yaleB39_P02A+050E-40', 'yaleB39_P02A+060E-20', 'yaleB39_P02A+070E+00', 'yaleB39_P02A+085E+20', 'yaleB39_P02A+110E+65', 'yaleB39_P02A-020E-40', 'yaleB39_P02A-035E-20', 'yaleB39_P02A-050E+00', 'yaleB39_P02A-060E-20', 'yaleB39_P02A-070E+00', 'yaleB39_P02A-085E+20', 'yaleB39_P03A+000E-35', 'yaleB39_P03A-020E-40', 'yaleB39_P03A-060E-20', 'yaleB39_P04A+070E+00', 'yaleB39_P05A+070E+00', 'yaleB39_P05A-050E+00', 'yaleB39_P05A-060E+20', 'yaleB39_P06A+000E+90', 'yaleB39_P06A+035E-20', 'yaleB39_P06A-020E-40', 'yaleB39_P06A-035E-20', 'yaleB39_P06A-070E+00', 'yaleB39_P07A+070E+00', 'yaleB39_P07A-020E-40', 'yaleB39_P08A-035E-20']

Matrix Confusion Results
Acuracia: 0.8439751552795031
Precisao: 0.9506896551724138
Sensibilidade: 0.850400987045034
Especificidade: 0.8173690932311622
False Positive Rate: 0.1826309067688378
F-score: 0.8977531748616087
Tempo de execução: 
 0:23:38.779991