^C:\USERS\BRUNO\PYCHARMPROJECTS\TCC\RECONHECIMENTO_FACIAL\DLIB-19.17\DLIB\CUDA\CUDA_DLIB.CU
C:\USERS\BRUNO\PYCHARMPROJECTS\TCC\RECONHECIMENTO_FACIAL\DLIB-19.17\BUILD\TEMP.WIN-AMD64-3.6\RELEASE\DLIB_BUILD\CMAKEFILES\DLIB.DIR\CUDA\RELEASE\DLIB_GENERATED_CUDA_DLIB.CU.OBJ
^C:\USERS\BRUNO\PYCHARMPROJECTS\TCC\RECONHECIMENTO_FACIAL\DLIB-19.17\DLIB\CUDA\CUSOLVER_DLIBAPI.CU
C:\USERS\BRUNO\PYCHARMPROJECTS\TCC\RECONHECIMENTO_FACIAL\DLIB-19.17\BUILD\TEMP.WIN-AMD64-3.6\RELEASE\DLIB_BUILD\CMAKEFILES\DLIB.DIR\CUDA\RELEASE\DLIB_GENERATED_CUSOLVER_DLIBAPI.CU.OBJ
^C:\USERS\BRUNO\PYCHARMPROJECTS\TCC\RECONHECIMENTO_FACIAL\DLIB-19.17\DLIB\CMAKELISTS.TXT
C:\USERS\BRUNO\PYCHARMPROJECTS\TCC\RECONHECIMENTO_FACIAL\DLIB-19.17\BUILD\TEMP.WIN-AMD64-3.6\RELEASE\DLIB_BUILD\CMAKEFILES\GENERATE.STAMP
