^C:\USERS\BRUNO\PYCHARMPROJECTS\TCC\RECONHECIMENTO_FACIAL\DLIB-19.17\TOOLS\PYTHON\SRC\BASIC.CPP|C:\USERS\BRUNO\PYCHARMPROJECTS\TCC\RECONHECIMENTO_FACIAL\DLIB-19.17\TOOLS\PYTHON\SRC\CCA.CPP|C:\USERS\BRUNO\PYCHARMPROJECTS\TCC\RECONHECIMENTO_FACIAL\DLIB-19.17\TOOLS\PYTHON\SRC\CNN_FACE_DETECTOR.CPP|C:\USERS\BRUNO\PYCHARMPROJECTS\TCC\RECONHECIMENTO_FACIAL\DLIB-19.17\TOOLS\PYTHON\SRC\CORRELATION_TRACKER.CPP|C:\USERS\BRUNO\PYCHARMPROJECTS\TCC\RECONHECIMENTO_FACIAL\DLIB-19.17\TOOLS\PYTHON\SRC\DECISION_FUNCTIONS.CPP|C:\USERS\BRUNO\PYCHARMPROJECTS\TCC\RECONHECIMENTO_FACIAL\DLIB-19.17\TOOLS\PYTHON\SRC\DLIB.CPP|C:\USERS\BRUNO\PYCHARMPROJECTS\TCC\RECONHECIMENTO_FACIAL\DLIB-19.17\TOOLS\PYTHON\SRC\FACE_RECOGNITION.CPP|C:\USERS\BRUNO\PYCHARMPROJECTS\TCC\RECONHECIMENTO_FACIAL\DLIB-19.17\TOOLS\PYTHON\SRC\GLOBAL_OPTIMIZATION.CPP|C:\USERS\BRUNO\PYCHARMPROJECTS\TCC\RECONHECIMENTO_FACIAL\DLIB-19.17\TOOLS\PYTHON\SRC\GUI.CPP|C:\USERS\BRUNO\PYCHARMPROJECTS\TCC\RECONHECIMENTO_FACIAL\DLIB-19.17\TOOLS\PYTHON\SRC\IMAGE.CPP|C:\USERS\BRUNO\PYCHARMPROJECTS\TCC\RECONHECIMENTO_FACIAL\DLIB-19.17\TOOLS\PYTHON\SRC\IMAGE2.CPP|C:\USERS\BRUNO\PYCHARMPROJECTS\TCC\RECONHECIMENTO_FACIAL\DLIB-19.17\TOOLS\PYTHON\SRC\IMAGE3.CPP|C:\USERS\BRUNO\PYCHARMPROJECTS\TCC\RECONHECIMENTO_FACIAL\DLIB-19.17\TOOLS\PYTHON\SRC\IMAGE4.CPP|C:\USERS\BRUNO\PYCHARMPROJECTS\TCC\RECONHECIMENTO_FACIAL\DLIB-19.17\TOOLS\PYTHON\SRC\IMAGE_DATASET_METADATA.CPP|C:\USERS\BRUNO\PYCHARMPROJECTS\TCC\RECONHECIMENTO_FACIAL\DLIB-19.17\TOOLS\PYTHON\SRC\LINE.CPP|C:\USERS\BRUNO\PYCHARMPROJECTS\TCC\RECONHECIMENTO_FACIAL\DLIB-19.17\TOOLS\PYTHON\SRC\MATRIX.CPP|C:\USERS\BRUNO\PYCHARMPROJECTS\TCC\RECONHECIMENTO_FACIAL\DLIB-19.17\TOOLS\PYTHON\SRC\NUMPY_RETURNS.CPP|C:\USERS\BRUNO\PYCHARMPROJECTS\TCC\RECONHECIMENTO_FACIAL\DLIB-19.17\TOOLS\PYTHON\SRC\OBJECT_DETECTION.CPP|C:\USERS\BRUNO\PYCHARMPROJECTS\TCC\RECONHECIMENTO_FACIAL\DLIB-19.17\TOOLS\PYTHON\SRC\OTHER.CPP|C:\USERS\BRUNO\PYCHARMPROJECTS\TCC\RECONHECIMENTO_FACIAL\DLIB-19.17\TOOLS\PYTHON\SRC\RECTANGLES.CPP|C:\USERS\BRUNO\PYCHARMPROJECTS\TCC\RECONHECIMENTO_FACIAL\DLIB-19.17\TOOLS\PYTHON\SRC\SEQUENCE_SEGMENTER.CPP|C:\USERS\BRUNO\PYCHARMPROJECTS\TCC\RECONHECIMENTO_FACIAL\DLIB-19.17\TOOLS\PYTHON\SRC\SHAPE_PREDICTOR.CPP|C:\USERS\BRUNO\PYCHARMPROJECTS\TCC\RECONHECIMENTO_FACIAL\DLIB-19.17\TOOLS\PYTHON\SRC\SVM_C_TRAINER.CPP|C:\USERS\BRUNO\PYCHARMPROJECTS\TCC\RECONHECIMENTO_FACIAL\DLIB-19.17\TOOLS\PYTHON\SRC\SVM_RANK_TRAINER.CPP|C:\USERS\BRUNO\PYCHARMPROJECTS\TCC\RECONHECIMENTO_FACIAL\DLIB-19.17\TOOLS\PYTHON\SRC\SVM_STRUCT.CPP|C:\USERS\BRUNO\PYCHARMPROJECTS\TCC\RECONHECIMENTO_FACIAL\DLIB-19.17\TOOLS\PYTHON\SRC\VECTOR.CPP
C:\USERS\BRUNO\PYCHARMPROJECTS\TCC\RECONHECIMENTO_FACIAL\DLIB-19.17\BUILD\TEMP.WIN-AMD64-3.6\RELEASE\DLIB_PYTHON.DIR\RELEASE\SVM_RANK_TRAINER.OBJ
C:\USERS\BRUNO\PYCHARMPROJECTS\TCC\RECONHECIMENTO_FACIAL\DLIB-19.17\BUILD\TEMP.WIN-AMD64-3.6\RELEASE\DLIB_PYTHON.DIR\RELEASE\CCA.OBJ
C:\USERS\BRUNO\PYCHARMPROJECTS\TCC\RECONHECIMENTO_FACIAL\DLIB-19.17\BUILD\TEMP.WIN-AMD64-3.6\RELEASE\DLIB_PYTHON.DIR\RELEASE\IMAGE3.OBJ
C:\USERS\BRUNO\PYCHARMPROJECTS\TCC\RECONHECIMENTO_FACIAL\DLIB-19.17\BUILD\TEMP.WIN-AMD64-3.6\RELEASE\DLIB_PYTHON.DIR\RELEASE\GLOBAL_OPTIMIZATION.OBJ
C:\USERS\BRUNO\PYCHARMPROJECTS\TCC\RECONHECIMENTO_FACIAL\DLIB-19.17\BUILD\TEMP.WIN-AMD64-3.6\RELEASE\DLIB_PYTHON.DIR\RELEASE\GUI.OBJ
C:\USERS\BRUNO\PYCHARMPROJECTS\TCC\RECONHECIMENTO_FACIAL\DLIB-19.17\BUILD\TEMP.WIN-AMD64-3.6\RELEASE\DLIB_PYTHON.DIR\RELEASE\DECISION_FUNCTIONS.OBJ
C:\USERS\BRUNO\PYCHARMPROJECTS\TCC\RECONHECIMENTO_FACIAL\DLIB-19.17\BUILD\TEMP.WIN-AMD64-3.6\RELEASE\DLIB_PYTHON.DIR\RELEASE\SVM_STRUCT.OBJ
C:\USERS\BRUNO\PYCHARMPROJECTS\TCC\RECONHECIMENTO_FACIAL\DLIB-19.17\BUILD\TEMP.WIN-AMD64-3.6\RELEASE\DLIB_PYTHON.DIR\RELEASE\IMAGE4.OBJ
C:\USERS\BRUNO\PYCHARMPROJECTS\TCC\RECONHECIMENTO_FACIAL\DLIB-19.17\BUILD\TEMP.WIN-AMD64-3.6\RELEASE\DLIB_PYTHON.DIR\RELEASE\CNN_FACE_DETECTOR.OBJ
C:\USERS\BRUNO\PYCHARMPROJECTS\TCC\RECONHECIMENTO_FACIAL\DLIB-19.17\BUILD\TEMP.WIN-AMD64-3.6\RELEASE\DLIB_PYTHON.DIR\RELEASE\SVM_C_TRAINER.OBJ
C:\USERS\BRUNO\PYCHARMPROJECTS\TCC\RECONHECIMENTO_FACIAL\DLIB-19.17\BUILD\TEMP.WIN-AMD64-3.6\RELEASE\DLIB_PYTHON.DIR\RELEASE\IMAGE2.OBJ
C:\USERS\BRUNO\PYCHARMPROJECTS\TCC\RECONHECIMENTO_FACIAL\DLIB-19.17\BUILD\TEMP.WIN-AMD64-3.6\RELEASE\DLIB_PYTHON.DIR\RELEASE\CORRELATION_TRACKER.OBJ
C:\USERS\BRUNO\PYCHARMPROJECTS\TCC\RECONHECIMENTO_FACIAL\DLIB-19.17\BUILD\TEMP.WIN-AMD64-3.6\RELEASE\DLIB_PYTHON.DIR\RELEASE\LINE.OBJ
C:\USERS\BRUNO\PYCHARMPROJECTS\TCC\RECONHECIMENTO_FACIAL\DLIB-19.17\BUILD\TEMP.WIN-AMD64-3.6\RELEASE\DLIB_PYTHON.DIR\RELEASE\MATRIX.OBJ
C:\USERS\BRUNO\PYCHARMPROJECTS\TCC\RECONHECIMENTO_FACIAL\DLIB-19.17\BUILD\TEMP.WIN-AMD64-3.6\RELEASE\DLIB_PYTHON.DIR\RELEASE\BASIC.OBJ
C:\USERS\BRUNO\PYCHARMPROJECTS\TCC\RECONHECIMENTO_FACIAL\DLIB-19.17\BUILD\TEMP.WIN-AMD64-3.6\RELEASE\DLIB_PYTHON.DIR\RELEASE\RECTANGLES.OBJ
C:\USERS\BRUNO\PYCHARMPROJECTS\TCC\RECONHECIMENTO_FACIAL\DLIB-19.17\BUILD\TEMP.WIN-AMD64-3.6\RELEASE\DLIB_PYTHON.DIR\RELEASE\FACE_RECOGNITION.OBJ
C:\USERS\BRUNO\PYCHARMPROJECTS\TCC\RECONHECIMENTO_FACIAL\DLIB-19.17\BUILD\TEMP.WIN-AMD64-3.6\RELEASE\DLIB_PYTHON.DIR\RELEASE\VECTOR.OBJ
C:\USERS\BRUNO\PYCHARMPROJECTS\TCC\RECONHECIMENTO_FACIAL\DLIB-19.17\BUILD\TEMP.WIN-AMD64-3.6\RELEASE\DLIB_PYTHON.DIR\RELEASE\SEQUENCE_SEGMENTER.OBJ
C:\USERS\BRUNO\PYCHARMPROJECTS\TCC\RECONHECIMENTO_FACIAL\DLIB-19.17\BUILD\TEMP.WIN-AMD64-3.6\RELEASE\DLIB_PYTHON.DIR\RELEASE\OBJECT_DETECTION.OBJ
C:\USERS\BRUNO\PYCHARMPROJECTS\TCC\RECONHECIMENTO_FACIAL\DLIB-19.17\BUILD\TEMP.WIN-AMD64-3.6\RELEASE\DLIB_PYTHON.DIR\RELEASE\IMAGE_DATASET_METADATA.OBJ
C:\USERS\BRUNO\PYCHARMPROJECTS\TCC\RECONHECIMENTO_FACIAL\DLIB-19.17\BUILD\TEMP.WIN-AMD64-3.6\RELEASE\DLIB_PYTHON.DIR\RELEASE\DLIB.OBJ
C:\USERS\BRUNO\PYCHARMPROJECTS\TCC\RECONHECIMENTO_FACIAL\DLIB-19.17\BUILD\TEMP.WIN-AMD64-3.6\RELEASE\DLIB_PYTHON.DIR\RELEASE\OTHER.OBJ
C:\USERS\BRUNO\PYCHARMPROJECTS\TCC\RECONHECIMENTO_FACIAL\DLIB-19.17\BUILD\TEMP.WIN-AMD64-3.6\RELEASE\DLIB_PYTHON.DIR\RELEASE\IMAGE.OBJ
C:\USERS\BRUNO\PYCHARMPROJECTS\TCC\RECONHECIMENTO_FACIAL\DLIB-19.17\BUILD\TEMP.WIN-AMD64-3.6\RELEASE\DLIB_PYTHON.DIR\RELEASE\SHAPE_PREDICTOR.OBJ
C:\USERS\BRUNO\PYCHARMPROJECTS\TCC\RECONHECIMENTO_FACIAL\DLIB-19.17\BUILD\TEMP.WIN-AMD64-3.6\RELEASE\DLIB_PYTHON.DIR\RELEASE\NUMPY_RETURNS.OBJ
